
DisplayName "Pocket Castle 1F (North)"



EVENT   1
 PAGE   1
  0()



EVENT   2
 PAGE   1
  0()



EVENT   3
 PAGE   1
  0()



EVENT   4
 PAGE   1
  0()



EVENT   5
 PAGE   1
  0()



EVENT   6
 PAGE   1
  0()



EVENT   7
 PAGE   1
  0()



EVENT   8
 PAGE   1
  0()



EVENT   9
 PAGE   1
  0()



EVENT   10
 PAGE   1
  0()



EVENT   11
 PAGE   1
  0()



EVENT   12
 PAGE   1
  0()



EVENT   13
 PAGE   1
  0()



EVENT   14
 PAGE   1
  281(0)
  250(bytes(0x04,0x08,0x6f,0x3a,0x0c,0x52,0x50,0x47,0x3a,0x3a,0x53,0x45,0x08,0x3a,0x0a,0x40,0x6e,0x61,0x6d,0x65,0x49,0x22,0x09,0x4d,0x6f,0x76,0x65,0x06,0x3a,0x06,0x45,0x54,0x3a,0x0b,0x40,0x70,0x69,0x74,0x63,0x68,0x69,0x69,0x3a,0x0c,0x40,0x76,0x6f,0x6c,0x75,0x6d,0x65,0x69,0x55))
  TeleportPlayer(0,228,40,3,0,0)
  0()



EVENT   18
 PAGE   1
  281(0)
  250(bytes(0x04,0x08,0x6f,0x3a,0x0c,0x52,0x50,0x47,0x3a,0x3a,0x53,0x45,0x08,0x3a,0x0a,0x40,0x6e,0x61,0x6d,0x65,0x49,0x22,0x09,0x4d,0x6f,0x76,0x65,0x06,0x3a,0x06,0x45,0x54,0x3a,0x0b,0x40,0x70,0x69,0x74,0x63,0x68,0x69,0x69,0x3a,0x0c,0x40,0x76,0x6f,0x6c,0x75,0x6d,0x65,0x69,0x55))
  TeleportPlayer(0,273,11,11,0,0)
  0()



EVENT   19
 PAGE   1
  250(bytes(0x04,0x08,0x6f,0x3a,0x0c,0x52,0x50,0x47,0x3a,0x3a,0x53,0x45,0x08,0x3a,0x0a,0x40,0x6e,0x61,0x6d,0x65,0x49,0x22,0x0a,0x4f,0x70,0x65,0x6e,0x31,0x06,0x3a,0x06,0x45,0x54,0x3a,0x0b,0x40,0x70,0x69,0x74,0x63,0x68,0x69,0x69,0x3a,0x0c,0x40,0x76,0x6f,0x6c,0x75,0x6d,0x65,0x69,0x55))
  205(0,bytes(0x04,0x08,0x6f,0x3a,0x13,0x52,0x50,0x47,0x3a,0x3a,0x4d,0x6f,0x76,0x65,0x52,0x6f,0x75,0x74,0x65,0x09,0x3a,0x0c,0x40,0x72,0x65,0x70,0x65,0x61,0x74,0x46,0x3a,0x0f,0x40,0x73,0x6b,0x69,0x70,0x70,0x61,0x62,0x6c,0x65,0x46,0x3a,0x0a,0x40,0x77,0x61,0x69,0x74,0x54,0x3a,0x0a,0x40,0x6c,0x69,0x73,0x74,0x5b,0x0c,0x6f,0x3a,0x15,0x52,0x50,0x47,0x3a,0x3a,0x4d,0x6f,0x76,0x65,0x43,0x6f,0x6d,0x6d,0x61,0x6e,0x64,0x07,0x3a,0x0a,0x40,0x63,0x6f,0x64,0x65,0x69,0x16,0x3a,0x10,0x40,0x70,0x61,0x72,0x61,0x6d,0x65,0x74,0x65,0x72,0x73,0x5b,0x00,0x6f,0x3b,0x0a,0x07,0x3b,0x0b,0x69,0x14,0x3b,0x0c,0x5b,0x06,0x69,0x08,0x6f,0x3b,0x0a,0x07,0x3b,0x0b,0x69,0x17,0x3b,0x0c,0x5b,0x00,0x6f,0x3b,0x0a,0x07,0x3b,0x0b,0x69,0x14,0x3b,0x0c,0x5b,0x06,0x69,0x08,0x6f,0x3b,0x0a,0x07,0x3b,0x0b,0x69,0x18,0x3b,0x0c,0x5b,0x00,0x6f,0x3b,0x0a,0x07,0x3b,0x0b,0x69,0x2a,0x3b,0x0c,0x5b,0x00,0x6f,0x3b,0x0a,0x07,0x3b,0x0b,0x69,0x00,0x3b,0x0c,0x5b,0x00))
  205(-1,bytes(0x04,0x08,0x6f,0x3a,0x13,0x52,0x50,0x47,0x3a,0x3a,0x4d,0x6f,0x76,0x65,0x52,0x6f,0x75,0x74,0x65,0x09,0x3a,0x0c,0x40,0x72,0x65,0x70,0x65,0x61,0x74,0x46,0x3a,0x0f,0x40,0x73,0x6b,0x69,0x70,0x70,0x61,0x62,0x6c,0x65,0x54,0x3a,0x0a,0x40,0x77,0x61,0x69,0x74,0x54,0x3a,0x0a,0x40,0x6c,0x69,0x73,0x74,0x5b,0x07,0x6f,0x3a,0x15,0x52,0x50,0x47,0x3a,0x3a,0x4d,0x6f,0x76,0x65,0x43,0x6f,0x6d,0x6d,0x61,0x6e,0x64,0x07,0x3a,0x0a,0x40,0x63,0x6f,0x64,0x65,0x69,0x11,0x3a,0x10,0x40,0x70,0x61,0x72,0x61,0x6d,0x65,0x74,0x65,0x72,0x73,0x5b,0x00,0x6f,0x3b,0x0a,0x07,0x3b,0x0b,0x69,0x00,0x3b,0x0c,0x5b,0x00))
  281(0)
  250(bytes(0x04,0x08,0x6f,0x3a,0x0c,0x52,0x50,0x47,0x3a,0x3a,0x53,0x45,0x08,0x3a,0x0a,0x40,0x6e,0x61,0x6d,0x65,0x49,0x22,0x09,0x4d,0x6f,0x76,0x65,0x06,0x3a,0x06,0x45,0x54,0x3a,0x0b,0x40,0x70,0x69,0x74,0x63,0x68,0x69,0x69,0x3a,0x0c,0x40,0x76,0x6f,0x6c,0x75,0x6d,0x65,0x69,0x55))
  TeleportPlayer(0,268,11,28,0,0)
  0()



EVENT   20
 PAGE   1
  250(bytes(0x04,0x08,0x6f,0x3a,0x0c,0x52,0x50,0x47,0x3a,0x3a,0x53,0x45,0x08,0x3a,0x0a,0x40,0x6e,0x61,0x6d,0x65,0x49,0x22,0x0a,0x4f,0x70,0x65,0x6e,0x31,0x06,0x3a,0x06,0x45,0x54,0x3a,0x0b,0x40,0x70,0x69,0x74,0x63,0x68,0x69,0x69,0x3a,0x0c,0x40,0x76,0x6f,0x6c,0x75,0x6d,0x65,0x69,0x55))
  205(0,bytes(0x04,0x08,0x6f,0x3a,0x13,0x52,0x50,0x47,0x3a,0x3a,0x4d,0x6f,0x76,0x65,0x52,0x6f,0x75,0x74,0x65,0x09,0x3a,0x0c,0x40,0x72,0x65,0x70,0x65,0x61,0x74,0x46,0x3a,0x0f,0x40,0x73,0x6b,0x69,0x70,0x70,0x61,0x62,0x6c,0x65,0x46,0x3a,0x0a,0x40,0x77,0x61,0x69,0x74,0x54,0x3a,0x0a,0x40,0x6c,0x69,0x73,0x74,0x5b,0x0c,0x6f,0x3a,0x15,0x52,0x50,0x47,0x3a,0x3a,0x4d,0x6f,0x76,0x65,0x43,0x6f,0x6d,0x6d,0x61,0x6e,0x64,0x07,0x3a,0x0a,0x40,0x63,0x6f,0x64,0x65,0x69,0x16,0x3a,0x10,0x40,0x70,0x61,0x72,0x61,0x6d,0x65,0x74,0x65,0x72,0x73,0x5b,0x00,0x6f,0x3b,0x0a,0x07,0x3b,0x0b,0x69,0x14,0x3b,0x0c,0x5b,0x06,0x69,0x08,0x6f,0x3b,0x0a,0x07,0x3b,0x0b,0x69,0x17,0x3b,0x0c,0x5b,0x00,0x6f,0x3b,0x0a,0x07,0x3b,0x0b,0x69,0x14,0x3b,0x0c,0x5b,0x06,0x69,0x08,0x6f,0x3b,0x0a,0x07,0x3b,0x0b,0x69,0x18,0x3b,0x0c,0x5b,0x00,0x6f,0x3b,0x0a,0x07,0x3b,0x0b,0x69,0x2a,0x3b,0x0c,0x5b,0x00,0x6f,0x3b,0x0a,0x07,0x3b,0x0b,0x69,0x00,0x3b,0x0c,0x5b,0x00))
  205(-1,bytes(0x04,0x08,0x6f,0x3a,0x13,0x52,0x50,0x47,0x3a,0x3a,0x4d,0x6f,0x76,0x65,0x52,0x6f,0x75,0x74,0x65,0x09,0x3a,0x0c,0x40,0x72,0x65,0x70,0x65,0x61,0x74,0x46,0x3a,0x0f,0x40,0x73,0x6b,0x69,0x70,0x70,0x61,0x62,0x6c,0x65,0x54,0x3a,0x0a,0x40,0x77,0x61,0x69,0x74,0x54,0x3a,0x0a,0x40,0x6c,0x69,0x73,0x74,0x5b,0x07,0x6f,0x3a,0x15,0x52,0x50,0x47,0x3a,0x3a,0x4d,0x6f,0x76,0x65,0x43,0x6f,0x6d,0x6d,0x61,0x6e,0x64,0x07,0x3a,0x0a,0x40,0x63,0x6f,0x64,0x65,0x69,0x11,0x3a,0x10,0x40,0x70,0x61,0x72,0x61,0x6d,0x65,0x74,0x65,0x72,0x73,0x5b,0x00,0x6f,0x3b,0x0a,0x07,0x3b,0x0b,0x69,0x00,0x3b,0x0c,0x5b,0x00))
  281(0)
  250(bytes(0x04,0x08,0x6f,0x3a,0x0c,0x52,0x50,0x47,0x3a,0x3a,0x53,0x45,0x08,0x3a,0x0a,0x40,0x6e,0x61,0x6d,0x65,0x49,0x22,0x09,0x4d,0x6f,0x76,0x65,0x06,0x3a,0x06,0x45,0x54,0x3a,0x0b,0x40,0x70,0x69,0x74,0x63,0x68,0x69,0x69,0x3a,0x0c,0x40,0x76,0x6f,0x6c,0x75,0x6d,0x65,0x69,0x55))
  TeleportPlayer(0,269,27,21,0,0)
  0()



EVENT   21
 PAGE   1
  281(0)
  250(bytes(0x04,0x08,0x6f,0x3a,0x0c,0x52,0x50,0x47,0x3a,0x3a,0x53,0x45,0x08,0x3a,0x0a,0x40,0x6e,0x61,0x6d,0x65,0x49,0x22,0x09,0x4d,0x6f,0x76,0x65,0x06,0x3a,0x06,0x45,0x54,0x3a,0x0b,0x40,0x70,0x69,0x74,0x63,0x68,0x69,0x69,0x3a,0x0c,0x40,0x76,0x6f,0x6c,0x75,0x6d,0x65,0x69,0x55))
  TeleportPlayer(0,271,19,41,0,0)
  0()



EVENT   26
 PAGE   1
  281(0)
  250(bytes(0x04,0x08,0x6f,0x3a,0x0c,0x52,0x50,0x47,0x3a,0x3a,0x53,0x45,0x08,0x3a,0x0a,0x40,0x6e,0x61,0x6d,0x65,0x49,0x22,0x09,0x4d,0x6f,0x76,0x65,0x06,0x3a,0x06,0x45,0x54,0x3a,0x0b,0x40,0x70,0x69,0x74,0x63,0x68,0x69,0x69,0x3a,0x0c,0x40,0x76,0x6f,0x6c,0x75,0x6d,0x65,0x69,0x55))
  TeleportPlayer(0,230,24,5,0,0)
  0()



EVENT   27
 PAGE   1
  281(0)
  250(bytes(0x04,0x08,0x6f,0x3a,0x0c,0x52,0x50,0x47,0x3a,0x3a,0x53,0x45,0x08,0x3a,0x0a,0x40,0x6e,0x61,0x6d,0x65,0x49,0x22,0x09,0x4d,0x6f,0x76,0x65,0x06,0x3a,0x06,0x45,0x54,0x3a,0x0b,0x40,0x70,0x69,0x74,0x63,0x68,0x69,0x69,0x3a,0x0c,0x40,0x76,0x6f,0x6c,0x75,0x6d,0x65,0x69,0x55))
  TeleportPlayer(0,270,33,25,4,0)
  0()



EVENT   15
 PAGE   1
  281(0)
  250(bytes(0x04,0x08,0x6f,0x3a,0x0c,0x52,0x50,0x47,0x3a,0x3a,0x53,0x45,0x08,0x3a,0x0a,0x40,0x6e,0x61,0x6d,0x65,0x49,0x22,0x09,0x4d,0x6f,0x76,0x65,0x06,0x3a,0x06,0x45,0x54,0x3a,0x0b,0x40,0x70,0x69,0x74,0x63,0x68,0x69,0x69,0x3a,0x0c,0x40,0x76,0x6f,0x6c,0x75,0x6d,0x65,0x69,0x55))
  TeleportPlayer(0,228,40,3,0,0)
  0()



EVENT   16
 PAGE   1
  281(0)
  250(bytes(0x04,0x08,0x6f,0x3a,0x0c,0x52,0x50,0x47,0x3a,0x3a,0x53,0x45,0x08,0x3a,0x0a,0x40,0x6e,0x61,0x6d,0x65,0x49,0x22,0x09,0x4d,0x6f,0x76,0x65,0x06,0x3a,0x06,0x45,0x54,0x3a,0x0b,0x40,0x70,0x69,0x74,0x63,0x68,0x69,0x69,0x3a,0x0c,0x40,0x76,0x6f,0x6c,0x75,0x6d,0x65,0x69,0x55))
  TeleportPlayer(0,228,40,3,0,0)
  0()



EVENT   17
 PAGE   1
  281(0)
  250(bytes(0x04,0x08,0x6f,0x3a,0x0c,0x52,0x50,0x47,0x3a,0x3a,0x53,0x45,0x08,0x3a,0x0a,0x40,0x6e,0x61,0x6d,0x65,0x49,0x22,0x09,0x4d,0x6f,0x76,0x65,0x06,0x3a,0x06,0x45,0x54,0x3a,0x0b,0x40,0x70,0x69,0x74,0x63,0x68,0x69,0x69,0x3a,0x0c,0x40,0x76,0x6f,0x6c,0x75,0x6d,0x65,0x69,0x55))
  TeleportPlayer(0,273,12,11,0,0)
  0()



EVENT   24
 PAGE   1
  281(0)
  250(bytes(0x04,0x08,0x6f,0x3a,0x0c,0x52,0x50,0x47,0x3a,0x3a,0x53,0x45,0x08,0x3a,0x0a,0x40,0x6e,0x61,0x6d,0x65,0x49,0x22,0x09,0x4d,0x6f,0x76,0x65,0x06,0x3a,0x06,0x45,0x54,0x3a,0x0b,0x40,0x70,0x69,0x74,0x63,0x68,0x69,0x69,0x3a,0x0c,0x40,0x76,0x6f,0x6c,0x75,0x6d,0x65,0x69,0x55))
  TeleportPlayer(0,230,24,5,0,0)
  0()



EVENT   25
 PAGE   1
  281(0)
  250(bytes(0x04,0x08,0x6f,0x3a,0x0c,0x52,0x50,0x47,0x3a,0x3a,0x53,0x45,0x08,0x3a,0x0a,0x40,0x6e,0x61,0x6d,0x65,0x49,0x22,0x09,0x4d,0x6f,0x76,0x65,0x06,0x3a,0x06,0x45,0x54,0x3a,0x0b,0x40,0x70,0x69,0x74,0x63,0x68,0x69,0x69,0x3a,0x0c,0x40,0x76,0x6f,0x6c,0x75,0x6d,0x65,0x69,0x55))
  TeleportPlayer(0,230,24,5,0,0)
  0()



EVENT   22
 PAGE   1
  281(0)
  250(bytes(0x04,0x08,0x6f,0x3a,0x0c,0x52,0x50,0x47,0x3a,0x3a,0x53,0x45,0x08,0x3a,0x0a,0x40,0x6e,0x61,0x6d,0x65,0x49,0x22,0x09,0x4d,0x6f,0x76,0x65,0x06,0x3a,0x06,0x45,0x54,0x3a,0x0b,0x40,0x70,0x69,0x74,0x63,0x68,0x69,0x69,0x3a,0x0c,0x40,0x76,0x6f,0x6c,0x75,0x6d,0x65,0x69,0x55))
  TeleportPlayer(0,271,19,41,0,0)
  0()



EVENT   23
 PAGE   1
  281(0)
  250(bytes(0x04,0x08,0x6f,0x3a,0x0c,0x52,0x50,0x47,0x3a,0x3a,0x53,0x45,0x08,0x3a,0x0a,0x40,0x6e,0x61,0x6d,0x65,0x49,0x22,0x09,0x4d,0x6f,0x76,0x65,0x06,0x3a,0x06,0x45,0x54,0x3a,0x0b,0x40,0x70,0x69,0x74,0x63,0x68,0x69,0x69,0x3a,0x0c,0x40,0x76,0x6f,0x6c,0x75,0x6d,0x65,0x69,0x55))
  TeleportPlayer(0,271,19,41,0,0)
  0()



EVENT   28
 PAGE   1
  281(0)
  250(bytes(0x04,0x08,0x6f,0x3a,0x0c,0x52,0x50,0x47,0x3a,0x3a,0x53,0x45,0x08,0x3a,0x0a,0x40,0x6e,0x61,0x6d,0x65,0x49,0x22,0x09,0x4d,0x6f,0x76,0x65,0x06,0x3a,0x06,0x45,0x54,0x3a,0x0b,0x40,0x70,0x69,0x74,0x63,0x68,0x69,0x69,0x3a,0x0c,0x40,0x76,0x6f,0x6c,0x75,0x6d,0x65,0x69,0x55))
  TeleportPlayer(0,270,33,25,4,0)
  0()



EVENT   29
 PAGE   1
  281(0)
  250(bytes(0x04,0x08,0x6f,0x3a,0x0c,0x52,0x50,0x47,0x3a,0x3a,0x53,0x45,0x08,0x3a,0x0a,0x40,0x6e,0x61,0x6d,0x65,0x49,0x22,0x09,0x4d,0x6f,0x76,0x65,0x06,0x3a,0x06,0x45,0x54,0x3a,0x0b,0x40,0x70,0x69,0x74,0x63,0x68,0x69,0x69,0x3a,0x0c,0x40,0x76,0x6f,0x6c,0x75,0x6d,0x65,0x69,0x55))
  TeleportPlayer(0,270,33,25,4,0)
  0()



EVENT   30
 PAGE   1
  281(0)
  250(bytes(0x04,0x08,0x6f,0x3a,0x0c,0x52,0x50,0x47,0x3a,0x3a,0x53,0x45,0x08,0x3a,0x0a,0x40,0x6e,0x61,0x6d,0x65,0x49,0x22,0x09,0x4d,0x6f,0x76,0x65,0x06,0x3a,0x06,0x45,0x54,0x3a,0x0b,0x40,0x70,0x69,0x74,0x63,0x68,0x69,0x69,0x3a,0x0c,0x40,0x76,0x6f,0x6c,0x75,0x6d,0x65,0x69,0x55))
  TeleportPlayer(0,270,33,25,4,0)
  0()



EVENT   31
 PAGE   1
  281(0)
  250(bytes(0x04,0x08,0x6f,0x3a,0x0c,0x52,0x50,0x47,0x3a,0x3a,0x53,0x45,0x08,0x3a,0x0a,0x40,0x6e,0x61,0x6d,0x65,0x49,0x22,0x09,0x4d,0x6f,0x76,0x65,0x06,0x3a,0x06,0x45,0x54,0x3a,0x0b,0x40,0x70,0x69,0x74,0x63,0x68,0x69,0x69,0x3a,0x0c,0x40,0x76,0x6f,0x6c,0x75,0x6d,0x65,0x69,0x55))
  TeleportPlayer(0,270,33,25,4,0)
  0()



EVENT   32
 PAGE   1
  281(0)
  250(bytes(0x04,0x08,0x6f,0x3a,0x0c,0x52,0x50,0x47,0x3a,0x3a,0x53,0x45,0x08,0x3a,0x0a,0x40,0x6e,0x61,0x6d,0x65,0x49,0x22,0x09,0x4d,0x6f,0x76,0x65,0x06,0x3a,0x06,0x45,0x54,0x3a,0x0b,0x40,0x70,0x69,0x74,0x63,0x68,0x69,0x69,0x3a,0x0c,0x40,0x76,0x6f,0x6c,0x75,0x6d,0x65,0x69,0x55))
  TeleportPlayer(0,270,33,25,4,0)
  0()



EVENT   33
 PAGE   1
  281(0)
  250(bytes(0x04,0x08,0x6f,0x3a,0x0c,0x52,0x50,0x47,0x3a,0x3a,0x53,0x45,0x08,0x3a,0x0a,0x40,0x6e,0x61,0x6d,0x65,0x49,0x22,0x09,0x4d,0x6f,0x76,0x65,0x06,0x3a,0x06,0x45,0x54,0x3a,0x0b,0x40,0x70,0x69,0x74,0x63,0x68,0x69,0x69,0x3a,0x0c,0x40,0x76,0x6f,0x6c,0x75,0x6d,0x65,0x69,0x55))
  TeleportPlayer(0,270,33,25,4,0)
  0()



EVENT   35
 PAGE   1
  // condition: switch 1070 is ON
  PictureDisplay(5,"80_nezumi_st01",0,0,0,0,100,100,0,0)
  PictureMove(5,null,0,0,0,0,100,100,255,0,30,true)
  If(1,3070,0,10,1)
   If(1,4070,0,0,0)
    ChangeVariable(4070,4070,0,0,1)
    ShowMessageFace("nezumi_fc1",1,0,2,1)
    ShowMessage("\\n<Ratty (Affection:\\V[3070])>これ、あげる…… 大切に使ってよね。")
    250(bytes(0x04,0x08,0x6f,0x3a,0x0c,0x52,0x50,0x47,0x3a,0x3a,0x53,0x45,0x08,0x3a,0x0a,0x40,0x6e,0x61,0x6d,0x65,0x49,0x22,0x0a,0x49,0x74,0x65,0x6d,0x31,0x06,0x3a,0x06,0x45,0x54,0x3a,0x0b,0x40,0x70,0x69,0x74,0x63,0x68,0x69,0x69,0x3a,0x0c,0x40,0x76,0x6f,0x6c,0x75,0x6d,0x65,0x69,0x55))
    ChangeInventory_Item(13,0,0,1)
    0()
   EndIf()
   0()
  EndIf()
  If(1,3070,0,100,1)
   If(1,4070,0,1,0)
    ChangeVariable(4070,4070,0,0,2)
    ShowMessageFace("nezumi_fc1",1,0,2,2)
    ShowMessage("\\n<Ratty (Affection:\\V[3070])>これ、あげる…… 大切に使ってよね。")
    250(bytes(0x04,0x08,0x6f,0x3a,0x0c,0x52,0x50,0x47,0x3a,0x3a,0x53,0x45,0x08,0x3a,0x0a,0x40,0x6e,0x61,0x6d,0x65,0x49,0x22,0x0a,0x49,0x74,0x65,0x6d,0x31,0x06,0x3a,0x06,0x45,0x54,0x3a,0x0b,0x40,0x70,0x69,0x74,0x63,0x68,0x69,0x69,0x3a,0x0c,0x40,0x76,0x6f,0x6c,0x75,0x6d,0x65,0x69,0x55))
    ChangeInventoryArmor(1036,0,0,1,false)
    0()
   EndIf()
   0()
  EndIf()
  If(1,3070,0,500,1)
   If(1,4070,0,2,0)
    ChangeVariable(4070,4070,0,0,3)
    ShowMessageFace("nezumi_fc1",1,0,2,3)
    ShowMessage("\\n<Ratty (Affection:\\V[3070])>これ、あげる…… 大切に使ってよね。")
    250(bytes(0x04,0x08,0x6f,0x3a,0x0c,0x52,0x50,0x47,0x3a,0x3a,0x53,0x45,0x08,0x3a,0x0a,0x40,0x6e,0x61,0x6d,0x65,0x49,0x22,0x0a,0x49,0x74,0x65,0x6d,0x31,0x06,0x3a,0x06,0x45,0x54,0x3a,0x0b,0x40,0x70,0x69,0x74,0x63,0x68,0x69,0x69,0x3a,0x0c,0x40,0x76,0x6f,0x6c,0x75,0x6d,0x65,0x69,0x55))
    ChangeInventoryArmor(1548,0,0,1,false)
    0()
   EndIf()
   0()
  EndIf()
  If(1,3070,0,2000,1)
   If(1,4070,0,3,0)
    ChangeVariable(4070,4070,0,0,4)
    ShowMessageFace("nezumi_fc1",1,0,2,4)
    ShowMessage("\\n<Ratty (Affection:\\V[3070])>これ、あげる…… 大切に使ってよね。")
    250(bytes(0x04,0x08,0x6f,0x3a,0x0c,0x52,0x50,0x47,0x3a,0x3a,0x53,0x45,0x08,0x3a,0x0a,0x40,0x6e,0x61,0x6d,0x65,0x49,0x22,0x0a,0x49,0x74,0x65,0x6d,0x31,0x06,0x3a,0x06,0x45,0x54,0x3a,0x0b,0x40,0x70,0x69,0x74,0x63,0x68,0x69,0x69,0x3a,0x0c,0x40,0x76,0x6f,0x6c,0x75,0x6d,0x65,0x69,0x55))
    ChangeInventoryArmor(1422,0,0,1,false)
    0()
   EndIf()
   0()
  EndIf()
  355("actor_label_jump")
  ShowMessageFace("nezumi_fc1",1,0,2,5)
  ShowMessage("\\n<Ratty (Affection:\\V[3070])>あっ！　な、何もしてないよ…… 盗み食いなんて、してないよ……")
  JumpToLabel("メニュー")
  DefineLabel("5")
  ShowMessageFace("nezumi_fc1",0,0,2,6)
  ShowMessage("\\n<Ratty (Affection:\\V[3070])>かじかじ、かじかじ……")
  ShowMessageFace("alice_fc5",2,0,2,7)
  ShowMessage("\\n<Alice (Affection:\\V[3005])>貴様、何をしている！ 魔王の目の前で盗み食いとは、ふといネズミだな！")
  ShowMessageFace("nezumi_fc1",1,0,2,8)
  ShowMessage("\\n<Ratty (Affection:\\V[3070])>ひゃっ、バレた！ チーズあげるから、ナイショにしてよぉ……")
  ShowMessageFace("alice_fc5",7,0,2,9)
  ShowMessage("\\n<Alice (Affection:\\V[3005])>うむ、おいしい……♪")
  ShowMessageFace("nezumi_fc1",0,0,2,10)
  ShowMessage("\\n<Ratty (Affection:\\V[3070])>かじかじ、かじかじ……")
  ShowMessageFace("ruka_fc1",0,0,2,11)
  ShowMessage("\\n<Luka>(アリスも盗み食い常習犯だよな……)")
  JumpToLabel("メニュー")
  DefineLabel("71")
  ShowMessageFace("nezumi_fc1",0,0,2,12)
  ShowMessage("\\n<Ratty (Affection:\\V[3070])>あたし、オオカミみたいに強くないの…… どうやったら、強くなれるのかな？")
  ShowMessageFace("okami_fc1",0,0,2,13)
  ShowMessage("\\n<Amara (Affection:\\V[3071])>思いっきり、遠吠えしてみたらどうだ？")
  ShowMessageFace("nezumi_fc1",2,0,2,14)
  ShowMessage("\\n<Ratty (Affection:\\V[3070])>チューッ！！")
  ShowMessageFace("okami_fc1",2,0,2,15)
  ShowMessage("\\n<Amara (Affection:\\V[3071])>ああ、なんだ……悪かったな。")
  JumpToLabel("メニュー")
  DefineLabel("88")
  ShowMessageFace("nezumi_fc1",0,0,2,16)
  ShowMessage("\\n<Ratty (Affection:\\V[3070])>かぼちゃだ…… ねぇ、かじっていい？")
  ShowMessageFace("jack_fc1",0,0,2,17)
  ShowMessage("\\n<Pumpkin (Affection:\\V[3088])>ダメ……")
  ShowMessageFace("nezumi_fc1",0,0,2,18)
  ShowMessage("\\n<Ratty (Affection:\\V[3070])>かじかじ……")
  ShowMessageFace("jack_fc1",2,0,2,19)
  ShowMessage("\\n<Pumpkin (Affection:\\V[3088])>やめて～！")
  JumpToLabel("メニュー")
  DefineLabel("メニュー")
  StartLoop()
   355("unlimited_choices(11, [\"Give presents\",")
   655("\"Add to party\",")
   655("\"View present list\",\"Request\",")
   655("\"Never mind\"])")
   If(1,11,0,0,0)
    355("present_start(70)")
    0()
   EndIf()
   If(1,11,0,1,0)
    PictureClear(5)
    355("move_actor_ex(70)")
    EndEventProcessing()
    0()
   EndIf()
   If(1,11,0,2,0)
    ShowMessageFace("",0,0,2,20)
    ShowMessage("Affection   10:\\ii[13]")
    ShowMessage("Affection  100:\\ia[1036]")
    ShowMessage("Affection  500:\\ia[1548]")
    ShowMessage("Affection 2000:\\ia[1422]")
    0()
   EndIf()
   If(1,11,0,3,0)
    PictureClear(5)
    ShowMessageFace("",0,0,2,21)
    ShowMessage("Ask her for what? (Affection:\\V[3070])")
    ShowChoices(strings("Handjob(Affection:10)","Tailjob(Affection:30)","Reverse rape(Affection:100)","Never mind"),4)
    IfPlayerPicksChoice(0,null)
     If(1,3070,0,10,1)
      355("call_novel_scene(4141)")
      EndEventProcessing()
      0()
     Else()
      ShowMessageFace("nezumi_fc1",0,0,2,22)
      ShowMessage("\\n<Ratty (Affection:\\V[3070])>また今度……")
      0()
     EndIf()
     0()
    IfPlayerPicksChoice(1,null)
     If(1,3070,0,30,1)
      355("call_novel_scene(4142)")
      EndEventProcessing()
      0()
     Else()
      ShowMessageFace("nezumi_fc1",0,0,2,23)
      ShowMessage("\\n<Ratty (Affection:\\V[3070])>また今度……")
      0()
     EndIf()
     0()
    IfPlayerPicksChoice(2,null)
     If(1,3070,0,100,1)
      355("call_novel_scene(4143)")
      EndEventProcessing()
      0()
     Else()
      ShowMessageFace("nezumi_fc1",0,0,2,24)
      ShowMessage("\\n<Ratty (Affection:\\V[3070])>また今度……")
      0()
     EndIf()
     0()
    IfPlayerPicksChoice(3,null)
     0()
    404()
    0()
   EndIf()
   If(1,11,0,4,1)
    PictureClear(5)
    EndEventProcessing()
    0()
   EndIf()
   0()
  EndLoop()
  0()
 PAGE   2
  // condition: party contains actor #70
  0()



EVENT   34
 PAGE   1
  // condition: switch 1005 is ON
  PictureDisplay(5,"80_alice_st71",0,0,0,0,100,100,0,0)
  PictureMove(5,null,0,0,0,0,100,100,255,0,30,true)
  If(1,3005,0,10,1)
   If(1,4005,0,0,0)
    ChangeVariable(4005,4005,0,0,1)
    ShowMessageFace("alice_fc5",0,0,2,1)
    ShowMessage("\\n<Alice (Affection:\\V[3005])>As the Monster Lord I will bestow this upon you. No need to be shy, accept it with my blessing.")
    250(bytes(0x04,0x08,0x6f,0x3a,0x0c,0x52,0x50,0x47,0x3a,0x3a,0x53,0x45,0x08,0x3a,0x0a,0x40,0x6e,0x61,0x6d,0x65,0x49,0x22,0x0a,0x49,0x74,0x65,0x6d,0x31,0x06,0x3a,0x06,0x45,0x54,0x3a,0x0b,0x40,0x70,0x69,0x74,0x63,0x68,0x69,0x69,0x3a,0x0c,0x40,0x76,0x6f,0x6c,0x75,0x6d,0x65,0x69,0x55))
    ChangeInventory_Item(79,0,0,1)
    0()
   EndIf()
   0()
  EndIf()
  If(1,3005,0,100,1)
   If(1,4005,0,1,0)
    ChangeVariable(4005,4005,0,0,2)
    ShowMessageFace("alice_fc5",0,0,2,2)
    ShowMessage("\\n<Alice (Affection:\\V[3005])>As the Monster Lord I will bestow this upon you. No need to be shy, accept it with my blessing.")
    250(bytes(0x04,0x08,0x6f,0x3a,0x0c,0x52,0x50,0x47,0x3a,0x3a,0x53,0x45,0x08,0x3a,0x0a,0x40,0x6e,0x61,0x6d,0x65,0x49,0x22,0x0a,0x49,0x74,0x65,0x6d,0x31,0x06,0x3a,0x06,0x45,0x54,0x3a,0x0b,0x40,0x70,0x69,0x74,0x63,0x68,0x69,0x69,0x3a,0x0c,0x40,0x76,0x6f,0x6c,0x75,0x6d,0x65,0x69,0x55))
    ChangeInventoryArmor(1026,0,0,1,false)
    0()
   EndIf()
   0()
  EndIf()
  If(1,3005,0,500,1)
   If(1,4005,0,2,0)
    ChangeVariable(4005,4005,0,0,3)
    ShowMessageFace("alice_fc5",0,0,2,3)
    ShowMessage("\\n<Alice (Affection:\\V[3005])>As the Monster Lord I will bestow this upon you. No need to be shy, accept it with my blessing.")
    250(bytes(0x04,0x08,0x6f,0x3a,0x0c,0x52,0x50,0x47,0x3a,0x3a,0x53,0x45,0x08,0x3a,0x0a,0x40,0x6e,0x61,0x6d,0x65,0x49,0x22,0x0a,0x49,0x74,0x65,0x6d,0x31,0x06,0x3a,0x06,0x45,0x54,0x3a,0x0b,0x40,0x70,0x69,0x74,0x63,0x68,0x69,0x69,0x3a,0x0c,0x40,0x76,0x6f,0x6c,0x75,0x6d,0x65,0x69,0x55))
    ChangeInventoryArmor(1076,0,0,1,false)
    0()
   EndIf()
   0()
  EndIf()
  If(1,3005,0,2000,1)
   If(1,4005,0,3,0)
    ChangeVariable(4005,4005,0,0,4)
    ShowMessageFace("alice_fc5",0,0,2,4)
    ShowMessage("\\n<Alice (Affection:\\V[3005])>As the Monster Lord I will bestow this upon you. No need to be shy, accept it with my blessing.")
    250(bytes(0x04,0x08,0x6f,0x3a,0x0c,0x52,0x50,0x47,0x3a,0x3a,0x53,0x45,0x08,0x3a,0x0a,0x40,0x6e,0x61,0x6d,0x65,0x49,0x22,0x0a,0x49,0x74,0x65,0x6d,0x31,0x06,0x3a,0x06,0x45,0x54,0x3a,0x0b,0x40,0x70,0x69,0x74,0x63,0x68,0x69,0x69,0x3a,0x0c,0x40,0x76,0x6f,0x6c,0x75,0x6d,0x65,0x69,0x55))
    ChangeInventoryArmor(1209,0,0,1,false)
    0()
   EndIf()
   0()
  EndIf()
  355("actor_label_jump")
  ShowMessageFace("alice_fc5",0,0,2,5)
  ShowMessage("\\n<Alice (Affection:\\V[3005])>My stomach is growling...")
  JumpToLabel("メニュー")
  DefineLabel("70")
  ShowMessageFace("nezumi_fc1",0,0,2,6)
  ShowMessage("\\n<Ratty (Affection:\\V[3070])>*Nibble* *Nibble*")
  ShowMessageFace("alice_fc5",2,0,2,7)
  ShowMessage("\\n<Alice (Affection:\\V[3005])>You! What are you doing?! Stealing food right under the Monster Lord's nose, you are one bold mouse!")
  ShowMessageFace("nezumi_fc1",1,0,2,8)
  ShowMessage("\\n<Ratty (Affection:\\V[3070])>Ahh! I was discovered! I'll give you some cheese. So keep it a secret, ok?")
  ShowMessageFace("alice_fc5",7,0,2,9)
  ShowMessage("\\n<Alice (Affection:\\V[3005])>*Nom* Delicious. ♪")
  ShowMessageFace("nezumi_fc1",0,0,2,10)
  ShowMessage("\\n<Ratty (Affection:\\V[3070])>*Nibble* *Nibble*")
  ShowMessageFace("ruka_fc1",0,0,2,11)
  ShowMessage("\\n<Luka>(Alice also has a habit of stealing food.)")
  JumpToLabel("メニュー")
  DefineLabel("79")
  ShowMessageFace("nuruko_fc1",0,0,2,12)
  ShowMessage("\\n<Nuruko (Affection:\\V[3079])>Kyukyu~,kyu~. ♪")
  ShowMessageFace("alice_fc5",0,0,2,13)
  ShowMessage("\\n<Alice (Affection:\\V[3005])>Just what manner of creature are you? Lifeforms from another world seem quite strange.")
  ShowMessageFace("nuruko_fc1",0,0,2,14)
  ShowMessage("\\n<Nuruko (Affection:\\V[3079])>Kyu!")
  ShowMessageFace("alice_fc5",1,0,2,15)
  ShowMessage("\\n<Alice (Affection:\\V[3005])>Oh? Are you giving me an apple? Thank you, I accept. *munch* *munch*")
  ShowMessageFace("alice_fc5",7,0,2,16)
  ShowMessage("\\n<Alice (Affection:\\V[3005])>Delicious. ♪")
  ShowMessageFace("nuruko_fc1",0,0,2,17)
  ShowMessage("\\n<Nuruko (Affection:\\V[3079])>Kyu. ♪")
  JumpToLabel("メニュー")
  DefineLabel("102")
  ShowMessageFace("alice_fc5",0,0,2,18)
  ShowMessage("\\n<Alice (Affection:\\V[3005])>Hmph, kitsune...")
  ShowMessageFace("youko_fc1",0,0,2,19)
  ShowMessage("\\n<Kitsu (Affection:\\V[3102])>You wont get my thin fried tofu! I hid it perfectly!")
  ShowMessageFace("alice_fc5",1,0,2,20)
  ShowMessage("\\n<Alice (Affection:\\V[3005])>Oh, your chest shouldn't bulge... Hmhmm, so that's where you've hidden it.")
  ShowMessageFace("youko_fc1",2,0,2,21)
  ShowMessage("\\n<Kitsu (Affection:\\V[3102])>Waaa! My thin fried tofu!")
  ShowMessageFace("alice_fc5",7,0,2,22)
  ShowMessage("\\n<Alice (Affection:\\V[3005])>*Munch* *Munch* ...Wonderful.")
  ShowMessageFace("sonia_fc2",5,0,2,23)
  ShowMessage("\\n<Sonya>Hey! Stop picking on her!")
  JumpToLabel("メニュー")
  DefineLabel("106")
  ShowMessageFace("alice_fc5",0,0,2,24)
  ShowMessage("\\n<Alice (Affection:\\V[3005])>Kitsune...")
  ShowMessageFace("nanabi_fc1",0,0,2,25)
  ShowMessage("\\n<Nanabi (Affection:\\V[3106])>Please don't hate us Monster Lord. The entire kitsune family is devoted to you.")
  ShowMessageFace("alice_fc5",0,0,2,26)
  ShowMessage("\\n<Alice (Affection:\\V[3005])>Treating me like a child...")
  ShowMessageFace("nanabi_fc1",0,0,2,27)
  ShowMessage("\\n<Nanabi (Affection:\\V[3106])>I know you are not a child... Here, have some candy.")
  ShowMessageFace("alice_fc5",7,0,2,28)
  ShowMessage("\\n<Alice (Affection:\\V[3005])>....... ♪")
  ShowMessageFace("alice_fc5",3,0,2,29)
  ShowMessage("\\n<Alice (Affection:\\V[3005])>Do you think I can be enticed with this?")
  ShowMessageFace("nanabi_fc1",0,0,2,30)
  ShowMessage("\\n<Nanabi (Affection:\\V[3106])>So you weren't enticed...")
  JumpToLabel("メニュー")
  DefineLabel("130")
  ShowMessageFace("alice_fc5",0,0,2,31)
  ShowMessage("\\n<Alice (Affection:\\V[3005])>Ghost girl, there is no reason to be scared of you. Your existence can be explained with magical science.")
  ShowMessageFace("ghost_fc1",1,0,2,32)
  ShowMessage("\\n<Carrie (Affection:\\V[3130])>I have unfinished business.")
  ShowMessageFace("alice_fc5",6,0,2,33)
  ShowMessage("\\n<Alice (Affection:\\V[3005])>Ahhh! I wouldn't be scared if you hadn't said that!")
  ShowMessageFace("ghost_fc1",1,0,2,34)
  ShowMessage("\\n<Carrie (Affection:\\V[3130])>Boooowoooowhoooo.")
  ShowMessageFace("alice_fc5",6,0,2,35)
  ShowMessage("\\n<Alice (Affection:\\V[3005])>Ahhhhhhh!")
  JumpToLabel("メニュー")
  DefineLabel("161")
  ShowMessageFace("alice_fc5",1,0,2,36)
  ShowMessage("\\n<Alice (Affection:\\V[3005])>I heard your cooking is pretty good. This is your chance to dedicate a special dish to the Monster Lord.")
  ShowMessageFace("ustrel_fc1",0,0,2,37)
  ShowMessage("\\n<Lemon (Affection:\\V[3161])>How about paella?")
  ShowMessageFace("alice_fc5",1,0,2,38)
  ShowMessage("\\n<Alice (Affection:\\V[3005])>Ohh, excellent! What ingredients are you using?")
  ShowMessageFace("ustrel_fc1",0,0,2,39)
  ShowMessage("\\n<Lemon (Affection:\\V[3161])>That is... umm...")
  ShowMessageFace("alice_fc5",5,0,2,40)
  ShowMessage("\\n<Alice (Affection:\\V[3005])>Wait, did I just see you glancing at your lower body?")
  JumpToLabel("メニュー")
  DefineLabel("メニュー")
  StartLoop()
   355("unlimited_choices(11, [\"Give presents\",")
   655("\"Add to party\",")
   655("\"View present list\",\"Request\",")
   655("\"Never mind\"])")
   If(1,11,0,0,0)
    355("present_start(5)")
    0()
   EndIf()
   If(1,11,0,1,0)
    PictureClear(5)
    355("move_actor_ex(5)")
    EndEventProcessing()
    0()
   EndIf()
   If(1,11,0,2,0)
    ShowMessageFace("",0,0,2,41)
    ShowMessage("Affection   10:\\ii[79]")
    ShowMessage("Affection  100:\\ia[1026]")
    ShowMessage("Affection  500:\\ia[1076]")
    ShowMessage("Affection 2000:\\ia[1209]")
    0()
   EndIf()
   If(1,11,0,3,0)
    PictureClear(5)
    ShowMessageFace("",0,0,2,42)
    ShowMessage("Ask her for what? (Affection:\\V[3005])")
    ShowChoices(strings("Blowjob(Affection:50)","Reverse rape(Affection:100)","Never mind"),3)
    IfPlayerPicksChoice(0,null)
     If(1,3005,0,50,1)
      355("call_novel_scene(4001)")
      EndEventProcessing()
      0()
     Else()
      ShowMessageFace("alice_fc5",0,0,2,43)
      ShowMessage("\\n<Alice (Affection:\\V[3005])>Right now, I'm more concerned with satisfying my hunger. Speaking of which, is it time to eat?")
      0()
     EndIf()
     0()
    IfPlayerPicksChoice(1,null)
     If(1,3005,0,100,1)
      355("call_novel_scene(4002)")
      EndEventProcessing()
      0()
     Else()
      ShowMessageFace("alice_fc5",0,0,2,44)
      ShowMessage("\\n<Alice (Affection:\\V[3005])>Right now, I'm more concerned with satisfying my hunger. Speaking of which, is it time to eat?")
      0()
     EndIf()
     0()
    IfPlayerPicksChoice(2,null)
     0()
    404()
    0()
   EndIf()
   If(1,11,0,4,1)
    PictureClear(5)
    EndEventProcessing()
    0()
   EndIf()
   0()
  EndLoop()
  0()
 PAGE   2
  // condition: party contains actor #5
  0()


EVENT   36
 PAGE   1
  RunCommonEvent(111)
  0()



EVENT   39
 PAGE   1
  // condition: switch 1092 is ON
  PictureDisplay(5,"80_eater_st01",0,0,0,0,100,100,0,0)
  PictureMove(5,null,0,0,0,0,100,100,255,0,30,true)
  If(1,3092,0,10,1)
   If(1,4092,0,0,0)
    ChangeVariable(4092,4092,0,0,1)
    ShowMessageFace("eater_fc1",0,0,2,1)
    ShowMessage("\\n<Eater (Affection:\\V[3092])>これ、おいしくない…… お兄ちゃんにあげる……")
    250(bytes(0x04,0x08,0x6f,0x3a,0x0c,0x52,0x50,0x47,0x3a,0x3a,0x53,0x45,0x08,0x3a,0x0a,0x40,0x6e,0x61,0x6d,0x65,0x49,0x22,0x0a,0x49,0x74,0x65,0x6d,0x31,0x06,0x3a,0x06,0x45,0x54,0x3a,0x0b,0x40,0x70,0x69,0x74,0x63,0x68,0x69,0x69,0x3a,0x0c,0x40,0x76,0x6f,0x6c,0x75,0x6d,0x65,0x69,0x55))
    ChangeInventory_Item(24,0,0,1)
    0()
   EndIf()
   0()
  EndIf()
  If(1,3092,0,100,1)
   If(1,4092,0,1,0)
    ChangeVariable(4092,4092,0,0,2)
    ShowMessageFace("eater_fc1",0,0,2,2)
    ShowMessage("\\n<Eater (Affection:\\V[3092])>これ、おいしくない…… お兄ちゃんにあげる……")
    250(bytes(0x04,0x08,0x6f,0x3a,0x0c,0x52,0x50,0x47,0x3a,0x3a,0x53,0x45,0x08,0x3a,0x0a,0x40,0x6e,0x61,0x6d,0x65,0x49,0x22,0x0a,0x49,0x74,0x65,0x6d,0x31,0x06,0x3a,0x06,0x45,0x54,0x3a,0x0b,0x40,0x70,0x69,0x74,0x63,0x68,0x69,0x69,0x3a,0x0c,0x40,0x76,0x6f,0x6c,0x75,0x6d,0x65,0x69,0x55))
    ChangeInventoryArmor(1021,0,0,1,false)
    0()
   EndIf()
   0()
  EndIf()
  If(1,3092,0,500,1)
   If(1,4092,0,2,0)
    ChangeVariable(4092,4092,0,0,3)
    ShowMessageFace("eater_fc1",0,0,2,3)
    ShowMessage("\\n<Eater (Affection:\\V[3092])>これ、おいしくない…… お兄ちゃんにあげる……")
    250(bytes(0x04,0x08,0x6f,0x3a,0x0c,0x52,0x50,0x47,0x3a,0x3a,0x53,0x45,0x08,0x3a,0x0a,0x40,0x6e,0x61,0x6d,0x65,0x49,0x22,0x0a,0x49,0x74,0x65,0x6d,0x31,0x06,0x3a,0x06,0x45,0x54,0x3a,0x0b,0x40,0x70,0x69,0x74,0x63,0x68,0x69,0x69,0x3a,0x0c,0x40,0x76,0x6f,0x6c,0x75,0x6d,0x65,0x69,0x55))
    ChangeInventoryArmor(1576,0,0,1,false)
    0()
   EndIf()
   0()
  EndIf()
  If(1,3092,0,2000,1)
   If(1,4092,0,3,0)
    ChangeVariable(4092,4092,0,0,4)
    ShowMessageFace("eater_fc1",0,0,2,4)
    ShowMessage("\\n<Eater (Affection:\\V[3092])>これ、おいしくない…… お兄ちゃんにあげる……")
    250(bytes(0x04,0x08,0x6f,0x3a,0x0c,0x52,0x50,0x47,0x3a,0x3a,0x53,0x45,0x08,0x3a,0x0a,0x40,0x6e,0x61,0x6d,0x65,0x49,0x22,0x0a,0x49,0x74,0x65,0x6d,0x31,0x06,0x3a,0x06,0x45,0x54,0x3a,0x0b,0x40,0x70,0x69,0x74,0x63,0x68,0x69,0x69,0x3a,0x0c,0x40,0x76,0x6f,0x6c,0x75,0x6d,0x65,0x69,0x55))
    ChangeInventoryArmor(1003,0,0,1,false)
    0()
   EndIf()
   0()
  EndIf()
  355("actor_label_jump")
  ShowMessageFace("eater_fc1",4,0,2,5)
  ShowMessage("\\n<Eater (Affection:\\V[3092])>おなかへった……")
  JumpToLabel("メニュー")
  JumpToLabel("100")
  ShowMessageFace("eater_fc1",4,0,2,6)
  ShowMessage("\\n<Eater (Affection:\\V[3092])>わぁ、へんな花！")
  ShowMessageFace("rahure_fc1",0,0,2,7)
  ShowMessage("\\n<Fleesia (Affection:\\V[3100])>あんただって、変でしょう……")
  ShowMessageFace("eater_fc1",4,0,2,8)
  ShowMessage("\\n<Eater (Affection:\\V[3092])>しかも、臭い！")
  ShowMessageFace("rahure_fc1",0,0,2,9)
  ShowMessage("\\n<Fleesia (Affection:\\V[3100])>この子、嫌い……")
  JumpToLabel("メニュー")
  DefineLabel("111")
  ShowMessageFace("eater_fc1",0,0,2,10)
  ShowMessage("\\n<Eater (Affection:\\V[3092])>そのスイカ、おいしいの……？")
  ShowMessageFace("suika_fc1",1,0,2,11)
  ShowMessage("\\n<Melon (Affection:\\V[3111])>とってもおいしいよ……はい、あげる♪")
  ShowMessageFace("eater_fc1",1,0,2,12)
  ShowMessage("\\n<Eater (Affection:\\V[3092])>むしゃむしゃ……甘くて、おいしい！")
  ShowMessageFace("eater_fc1",3,0,2,13)
  ShowMessage("\\n<Eater (Affection:\\V[3092])>……………………")
  ShowMessageFace("suika_fc1",2,0,2,14)
  ShowMessage("\\n<Melon (Affection:\\V[3111])>なに、その「こいつ丸ごと食べるとうまそう」みたいな目。 私は食べないでよね……？")
  JumpToLabel("メニュー")
  DefineLabel("112")
  ShowMessageFace("utubo_fc1",0,0,2,15)
  ShowMessage("\\n<Kazura (Affection:\\V[3112])>なんだか、あんまり見ないタイプだけど…… あんたも、肉食の植物だよね？")
  ShowMessageFace("eater_fc1",3,0,2,16)
  ShowMessage("\\n<Eater (Affection:\\V[3092])>おにく、大好きだよ！ ぱっくんするの！")
  ShowMessageFace("utubo_fc1",0,0,2,17)
  ShowMessage("\\n<Kazura (Affection:\\V[3112])>(ハエトリグサと同じタイプかな…… 　でも、なんだかやけに肉々しいし……)")
  ShowMessageFace("utubo_fc1",0,0,2,18)
  ShowMessage("\\n<Kazura (Affection:\\V[3112])>(……おいしそう……)")
  ShowMessageFace("eater_fc1",3,0,2,19)
  ShowMessage("\\n<Eater (Affection:\\V[3092])>(……おいしそう……)")
  JumpToLabel("メニュー")
  DefineLabel("メニュー")
  StartLoop()
   355("unlimited_choices(11, [\"Give presents\",")
   655("\"Add to party\",")
   655("\"View present list\",\"Request\",")
   655("\"Never mind\"])")
   If(1,11,0,0,0)
    355("present_start(92)")
    0()
   EndIf()
   If(1,11,0,1,0)
    PictureClear(5)
    355("move_actor_ex(92)")
    EndEventProcessing()
    0()
   EndIf()
   If(1,11,0,2,0)
    ShowMessageFace("",0,0,2,20)
    ShowMessage("Affection   10:\\ii[24]")
    ShowMessage("Affection  100:\\ia[1021]")
    ShowMessage("Affection  500:\\ia[1576]")
    ShowMessage("Affection 2000:\\ia[1003]")
    0()
   EndIf()
   If(1,11,0,3,0)
    PictureClear(5)
    ShowMessageFace("",0,0,2,21)
    ShowMessage("Ask her for what? (Affection:\\V[3092])")
    ShowChoices(strings("Predation(Affection:10)","Never mind"),2)
    IfPlayerPicksChoice(0,null)
     If(1,3092,0,10,1)
      355("call_novel_scene(4251)")
      EndEventProcessing()
      0()
     Else()
      ShowMessageFace("eater_fc1",0,0,2,22)
      ShowMessage("\\n<Eater (Affection:\\V[3092])>今、おなかいっぱい……")
      0()
     EndIf()
     0()
    IfPlayerPicksChoice(1,null)
     0()
    404()
    0()
   EndIf()
   If(1,11,0,4,1)
    PictureClear(5)
    EndEventProcessing()
    0()
   EndIf()
   0()
  EndLoop()
  0()
 PAGE   2
  // condition: party contains actor #92
  0()



EVENT   40
 PAGE   1
  // condition: switch 1144 is ON
  PictureDisplay(5,"80_saboresu_st01",0,0,0,0,100,100,0,0)
  PictureMove(5,null,0,0,0,0,100,100,255,0,30,true)
  If(1,3144,0,10,1)
   If(1,4144,0,0,0)
    ChangeVariable(4144,4144,0,0,1)
    ShowMessageFace("saboresu_fc1",0,0,2,1)
    ShowMessage("\\n<Sunny (Affection:\\V[3144])>ほら、これを受け取って。 日頃迷惑をかけてるし……ね？")
    250(bytes(0x04,0x08,0x6f,0x3a,0x0c,0x52,0x50,0x47,0x3a,0x3a,0x53,0x45,0x08,0x3a,0x0a,0x40,0x6e,0x61,0x6d,0x65,0x49,0x22,0x0a,0x49,0x74,0x65,0x6d,0x31,0x06,0x3a,0x06,0x45,0x54,0x3a,0x0b,0x40,0x70,0x69,0x74,0x63,0x68,0x69,0x69,0x3a,0x0c,0x40,0x76,0x6f,0x6c,0x75,0x6d,0x65,0x69,0x55))
    ChangeInventoryWeapon(670,0,0,1,false)
    0()
   EndIf()
   0()
  EndIf()
  If(1,3144,0,100,1)
   If(1,4144,0,1,0)
    ChangeVariable(4144,4144,0,0,2)
    ShowMessageFace("saboresu_fc1",0,0,2,2)
    ShowMessage("\\n<Sunny (Affection:\\V[3144])>ほら、これを受け取って。 日頃迷惑をかけてるし……ね？")
    250(bytes(0x04,0x08,0x6f,0x3a,0x0c,0x52,0x50,0x47,0x3a,0x3a,0x53,0x45,0x08,0x3a,0x0a,0x40,0x6e,0x61,0x6d,0x65,0x49,0x22,0x0a,0x49,0x74,0x65,0x6d,0x31,0x06,0x3a,0x06,0x45,0x54,0x3a,0x0b,0x40,0x70,0x69,0x74,0x63,0x68,0x69,0x69,0x3a,0x0c,0x40,0x76,0x6f,0x6c,0x75,0x6d,0x65,0x69,0x55))
    ChangeInventoryArmor(1054,0,0,1,false)
    0()
   EndIf()
   0()
  EndIf()
  If(1,3144,0,500,1)
   If(1,4144,0,2,0)
    ChangeVariable(4144,4144,0,0,3)
    ShowMessageFace("saboresu_fc1",0,0,2,3)
    ShowMessage("\\n<Sunny (Affection:\\V[3144])>ほら、これを受け取って。 日頃迷惑をかけてるし……ね？")
    250(bytes(0x04,0x08,0x6f,0x3a,0x0c,0x52,0x50,0x47,0x3a,0x3a,0x53,0x45,0x08,0x3a,0x0a,0x40,0x6e,0x61,0x6d,0x65,0x49,0x22,0x0a,0x49,0x74,0x65,0x6d,0x31,0x06,0x3a,0x06,0x45,0x54,0x3a,0x0b,0x40,0x70,0x69,0x74,0x63,0x68,0x69,0x69,0x3a,0x0c,0x40,0x76,0x6f,0x6c,0x75,0x6d,0x65,0x69,0x55))
    ChangeInventoryArmor(1162,0,0,1,false)
    0()
   EndIf()
   0()
  EndIf()
  If(1,3144,0,2000,1)
   If(1,4144,0,3,0)
    ChangeVariable(4144,4144,0,0,4)
    ShowMessageFace("saboresu_fc1",0,0,2,4)
    ShowMessage("\\n<Sunny (Affection:\\V[3144])>ほら、これを受け取って。 日頃迷惑をかけてるし……ね？")
    250(bytes(0x04,0x08,0x6f,0x3a,0x0c,0x52,0x50,0x47,0x3a,0x3a,0x53,0x45,0x08,0x3a,0x0a,0x40,0x6e,0x61,0x6d,0x65,0x49,0x22,0x0a,0x49,0x74,0x65,0x6d,0x31,0x06,0x3a,0x06,0x45,0x54,0x3a,0x0b,0x40,0x70,0x69,0x74,0x63,0x68,0x69,0x69,0x3a,0x0c,0x40,0x76,0x6f,0x6c,0x75,0x6d,0x65,0x69,0x55))
    ChangeInventoryArmor(1700,0,0,1,false)
    0()
   EndIf()
   0()
  EndIf()
  355("actor_label_jump")
  ShowMessageFace("saboresu_fc1",0,0,2,5)
  ShowMessage("\\n<Sunny (Affection:\\V[3144])>ああ、海賊になりたいなぁ…… 海が私を呼んでいるのよ！")
  JumpToLabel("メニュー")
  DefineLabel("117")
  ShowMessageFace("ankou_fc1",0,0,2,6)
  ShowMessage("\\n<Anko (Affection:\\V[3117])>……………………")
  ShowMessageFace("saboresu_fc1",0,0,2,7)
  ShowMessage("\\n<Sunny (Affection:\\V[3144])>海には、変な魚もいるもんよね。 私、海賊としてやっていけるのかな……？")
  ShowMessageFace("ankou_fc1",0,0,2,8)
  ShowMessage("\\n<Anko (Affection:\\V[3117])>……………………")
  ShowMessageFace("saboresu_fc1",0,0,2,9)
  ShowMessage("\\n<Sunny (Affection:\\V[3144])>疑似餌をちらつかせないで…… さすがに引っ掛からないから……")
  JumpToLabel("メニュー")
  DefineLabel("118")
  ShowMessageFace("saboresu_fc1",0,0,2,10)
  ShowMessage("\\n<Sunny (Affection:\\V[3144])>ねぇ、あたし海賊になりたいんだけど！")
  ShowMessageFace("meia_fc1",0,0,2,11)
  ShowMessage("\\n<Meia (Affection:\\V[3118])>海賊と言えば、略奪ですね。 少年を拉致し、売り払ったりしたいんですか？")
  ShowMessageFace("saboresu_fc1",2,0,2,12)
  ShowMessage("\\n<Sunny (Affection:\\V[3144])>それはあんたでしょ……")
  JumpToLabel("メニュー")
  DefineLabel("161")
  ShowMessageFace("saboresu_fc1",0,0,2,13)
  ShowMessage("\\n<Sunny (Affection:\\V[3144])>あんたも、スキュラの亜種？")
  ShowMessageFace("ustrel_fc1",0,0,2,14)
  ShowMessage("\\n<Lemon (Affection:\\V[3161])>ええ、いちおう私もスキュラです。 下半身の子は、純粋な触手ではないですが……")
  ShowMessageFace("saboresu_fc1",0,0,2,15)
  ShowMessage("\\n<Sunny (Affection:\\V[3144])>お互い苦労するよね。 下半身の子が、勝手に暴れ出したり……")
  ShowMessageFace("ustrel_fc1",0,0,2,16)
  ShowMessage("\\n<Lemon (Affection:\\V[3161])>ひどい時には、食べられかけたりしますよね。 本当に大変です……")
  JumpToLabel("メニュー")
  DefineLabel("メニュー")
  StartLoop()
   355("unlimited_choices(11, [\"Give presents\",")
   655("\"Add to party\",")
   655("\"View present list\",\"Request\",")
   655("\"Never mind\"])")
   If(1,11,0,0,0)
    355("present_start(144)")
    0()
   EndIf()
   If(1,11,0,1,0)
    PictureClear(5)
    355("move_actor_ex(144)")
    EndEventProcessing()
    0()
   EndIf()
   If(1,11,0,2,0)
    ShowMessageFace("",0,0,2,17)
    ShowMessage("Affection   10:\\iw[670]")
    ShowMessage("Affection  100:\\ia[1054]")
    ShowMessage("Affection  500:\\ia[1162]")
    ShowMessage("Affection 2000:\\ia[1700]")
    0()
   EndIf()
   If(1,11,0,3,0)
    PictureClear(5)
    ShowMessageFace("",0,0,2,18)
    ShowMessage("Ask her for what? (Affection:\\V[3144])")
    ShowChoices(strings("Semen Squeezing Hole(Affection:10)","Never mind"),2)
    IfPlayerPicksChoice(0,null)
     If(1,3144,0,10,1)
      355("call_novel_scene(4521)")
      EndEventProcessing()
      0()
     Else()
      ShowMessageFace("saboresu_fc1",0,0,2,19)
      ShowMessage("\\n<Sunny (Affection:\\V[3144])>今日はパス。")
      0()
     EndIf()
     0()
    IfPlayerPicksChoice(1,null)
     0()
    404()
    0()
   EndIf()
   If(1,11,0,4,1)
    PictureClear(5)
    EndEventProcessing()
    0()
   EndIf()
   0()
  EndLoop()
  0()
 PAGE   2
  // condition: party contains actor #144
  0()



EVENT   41
 PAGE   1
  // condition: switch 1141 is ON
  PictureDisplay(5,"80_mino_st01",0,0,0,0,100,100,0,0)
  PictureMove(5,null,0,0,0,0,100,100,255,0,30,true)
  If(1,3141,0,10,1)
   If(1,4141,0,0,0)
    ChangeVariable(4141,4141,0,0,1)
    ShowMessageFace("mino_fc1",0,0,2,1)
    ShowMessage("\\n<Mina (Affection:\\V[3141])>ほら、これを受け取りな。 盗品じゃないぜ、ちゃんと働いて稼いだ金で買ったんだ。")
    250(bytes(0x04,0x08,0x6f,0x3a,0x0c,0x52,0x50,0x47,0x3a,0x3a,0x53,0x45,0x08,0x3a,0x0a,0x40,0x6e,0x61,0x6d,0x65,0x49,0x22,0x0a,0x49,0x74,0x65,0x6d,0x31,0x06,0x3a,0x06,0x45,0x54,0x3a,0x0b,0x40,0x70,0x69,0x74,0x63,0x68,0x69,0x69,0x3a,0x0c,0x40,0x76,0x6f,0x6c,0x75,0x6d,0x65,0x69,0x55))
    ChangeInventoryWeapon(371,0,0,1,false)
    0()
   EndIf()
   0()
  EndIf()
  If(1,3141,0,100,1)
   If(1,4141,0,1,0)
    ChangeVariable(4141,4141,0,0,2)
    ShowMessageFace("mino_fc1",0,0,2,2)
    ShowMessage("\\n<Mina (Affection:\\V[3141])>ほら、これを受け取りな。 盗品じゃないぜ、ちゃんと働いて稼いだ金で買ったんだ。")
    250(bytes(0x04,0x08,0x6f,0x3a,0x0c,0x52,0x50,0x47,0x3a,0x3a,0x53,0x45,0x08,0x3a,0x0a,0x40,0x6e,0x61,0x6d,0x65,0x49,0x22,0x0a,0x49,0x74,0x65,0x6d,0x31,0x06,0x3a,0x06,0x45,0x54,0x3a,0x0b,0x40,0x70,0x69,0x74,0x63,0x68,0x69,0x69,0x3a,0x0c,0x40,0x76,0x6f,0x6c,0x75,0x6d,0x65,0x69,0x55))
    ChangeInventoryArmor(1016,0,0,1,false)
    0()
   EndIf()
   0()
  EndIf()
  If(1,3141,0,500,1)
   If(1,4141,0,2,0)
    ChangeVariable(4141,4141,0,0,3)
    ShowMessageFace("mino_fc1",0,0,2,3)
    ShowMessage("\\n<Mina (Affection:\\V[3141])>ほら、これを受け取りな。 盗品じゃないぜ、ちゃんと働いて稼いだ金で買ったんだ。")
    250(bytes(0x04,0x08,0x6f,0x3a,0x0c,0x52,0x50,0x47,0x3a,0x3a,0x53,0x45,0x08,0x3a,0x0a,0x40,0x6e,0x61,0x6d,0x65,0x49,0x22,0x0a,0x49,0x74,0x65,0x6d,0x31,0x06,0x3a,0x06,0x45,0x54,0x3a,0x0b,0x40,0x70,0x69,0x74,0x63,0x68,0x69,0x69,0x3a,0x0c,0x40,0x76,0x6f,0x6c,0x75,0x6d,0x65,0x69,0x55))
    ChangeInventoryArmor(1306,0,0,1,false)
    0()
   EndIf()
   0()
  EndIf()
  If(1,3141,0,2000,1)
   If(1,4141,0,3,0)
    ChangeVariable(4141,4141,0,0,4)
    ShowMessageFace("mino_fc1",0,0,2,4)
    ShowMessage("\\n<Mina (Affection:\\V[3141])>ほら、これを受け取りな。 盗品じゃないぜ、ちゃんと働いて稼いだ金で買ったんだ。")
    250(bytes(0x04,0x08,0x6f,0x3a,0x0c,0x52,0x50,0x47,0x3a,0x3a,0x53,0x45,0x08,0x3a,0x0a,0x40,0x6e,0x61,0x6d,0x65,0x49,0x22,0x0a,0x49,0x74,0x65,0x6d,0x31,0x06,0x3a,0x06,0x45,0x54,0x3a,0x0b,0x40,0x70,0x69,0x74,0x63,0x68,0x69,0x69,0x3a,0x0c,0x40,0x76,0x6f,0x6c,0x75,0x6d,0x65,0x69,0x55))
    ChangeInventoryArmor(1121,0,0,1,false)
    0()
   EndIf()
   0()
  EndIf()
  355("actor_label_jump")
  ShowMessageFace("mino_fc1",0,0,2,5)
  ShowMessage("\\n<Mina (Affection:\\V[3141])>おい、牛丼食わせろ！")
  JumpToLabel("メニュー")
  DefineLabel("60")
  ShowMessageFace("dog_fc1",0,0,2,6)
  ShowMessage("\\n<Pochi (Affection:\\V[3060])>うしさんだ！")
  ShowMessageFace("mino_fc1",0,0,2,7)
  ShowMessage("\\n<Mina (Affection:\\V[3141])>おう！　肉食ってるか、ワンコ！")
  ShowMessageFace("dog_fc1",1,0,2,8)
  ShowMessage("\\n<Pochi (Affection:\\V[3060])>骨付き肉、いっぱい食べてるよ！")
  ShowMessageFace("mino_fc1",0,0,2,9)
  ShowMessage("\\n<Mina (Affection:\\V[3141])>肉の次は、牛乳だ！ ミノタウロス印の牛乳、たっぷり飲めよ！")
  JumpToLabel("メニュー")
  DefineLabel("142")
  ShowMessageFace("bander_fc1",0,0,2,10)
  ShowMessage("\\n<Banachi (Affection:\\V[3142])>牛の娘か……力比べでもするか？")
  ShowMessageFace("mino_fc1",0,0,2,11)
  ShowMessage("\\n<Mina (Affection:\\V[3141])>おう、望むところだぜ！ 行くぞぉぉ……！！")
  ShowMessageFace("sonia_fc2",5,0,2,12)
  ShowMessage("\\n<Sonya>こら、やめなさい！ あんた達が暴れると、壁が潰れるでしょうが！")
  ShowMessageFace("mino_fc1",2,0,2,13)
  ShowMessage("\\n<Mina (Affection:\\V[3141])>ソニアが一番強ぇな……")
  JumpToLabel("メニュー")
  DefineLabel("164")
  ShowMessageFace("kooni_fc1",0,0,2,14)
  ShowMessage("\\n<Shizuku (Affection:\\V[3164])>わぁ、すっごい筋肉！ あたしも、そんな風になりたい！")
  ShowMessageFace("mino_fc1",0,0,2,15)
  ShowMessage("\\n<Mina (Affection:\\V[3141])>なら牛丼を食え、牛丼！")
  ShowMessageFace("kooni_fc1",2,0,2,16)
  ShowMessage("\\n<Shizuku (Affection:\\V[3164])>でもミナさん、牛系の魔物だよね…… 牛丼とか、いいの？")
  ShowMessageFace("mino_fc1",0,0,2,17)
  ShowMessage("\\n<Mina (Affection:\\V[3141])>細かいこと気にすると、背が伸びないぞ！ さあ、牛乳を飲め！")
  ShowMessageFace("kooni_fc1",2,0,2,18)
  ShowMessage("\\n<Shizuku (Affection:\\V[3164])>いいのかな……")
  JumpToLabel("メニュー")
  DefineLabel("メニュー")
  StartLoop()
   355("unlimited_choices(11, [\"Give presents\",")
   655("\"Add to party\",")
   655("\"View present list\",\"Request\",")
   655("\"Never mind\"])")
   If(1,11,0,0,0)
    355("present_start(141)")
    0()
   EndIf()
   If(1,11,0,1,0)
    PictureClear(5)
    355("move_actor_ex(141)")
    EndEventProcessing()
    0()
   EndIf()
   If(1,11,0,2,0)
    ShowMessageFace("",0,0,2,19)
    ShowMessage("Affection   10:\\iw[371]")
    ShowMessage("Affection  100:\\ia[1016]")
    ShowMessage("Affection  500:\\ia[1306]")
    ShowMessage("Affection 2000:\\ia[1121]")
    0()
   EndIf()
   If(1,11,0,3,0)
    PictureClear(5)
    ShowMessageFace("",0,0,2,20)
    ShowMessage("Ask her for what? (Affection:\\V[3141])")
    ShowChoices(strings("Busty Paizuri(Affection:10)","Never mind"),2)
    IfPlayerPicksChoice(0,null)
     If(1,3141,0,10,1)
      355("call_novel_scene(4501)")
      EndEventProcessing()
      0()
     Else()
      ShowMessageFace("mino_fc1",2,0,2,21)
      ShowMessage("\\n<Mina (Affection:\\V[3141])>今、乳の出が悪いんだよ……")
      0()
     EndIf()
     0()
    IfPlayerPicksChoice(1,null)
     0()
    404()
    0()
   EndIf()
   If(1,11,0,4,1)
    PictureClear(5)
    EndEventProcessing()
    0()
   EndIf()
   0()
  EndLoop()
  0()
 PAGE   2
  // condition: party contains actor #141
  0()



EVENT   42
 PAGE   1
  // condition: switch 1113 is ON
  PictureDisplay(5,"80_lamia_st01",0,0,0,0,100,100,0,0)
  PictureMove(5,null,0,0,0,0,100,100,255,0,30,true)
  If(1,3113,0,10,1)
   If(1,4113,0,0,0)
    ChangeVariable(4113,4113,0,0,1)
    ShowMessageFace("lamia_fc1",0,0,2,1)
    ShowMessage("\\n<Anastasia (Affection:\\V[3113])>あなた、なかなか素敵ね。 ほら、これを受け取りなさい……")
    250(bytes(0x04,0x08,0x6f,0x3a,0x0c,0x52,0x50,0x47,0x3a,0x3a,0x53,0x45,0x08,0x3a,0x0a,0x40,0x6e,0x61,0x6d,0x65,0x49,0x22,0x0a,0x49,0x74,0x65,0x6d,0x31,0x06,0x3a,0x06,0x45,0x54,0x3a,0x0b,0x40,0x70,0x69,0x74,0x63,0x68,0x69,0x69,0x3a,0x0c,0x40,0x76,0x6f,0x6c,0x75,0x6d,0x65,0x69,0x55))
    ChangeInventoryWeapon(149,0,0,1,false)
    0()
   EndIf()
   0()
  EndIf()
  If(1,3113,0,100,1)
   If(1,4113,0,1,0)
    ChangeVariable(4113,4113,0,0,2)
    ShowMessageFace("lamia_fc1",0,0,2,2)
    ShowMessage("\\n<Anastasia (Affection:\\V[3113])>あなた、なかなか素敵ね。 ほら、これを受け取りなさい……")
    250(bytes(0x04,0x08,0x6f,0x3a,0x0c,0x52,0x50,0x47,0x3a,0x3a,0x53,0x45,0x08,0x3a,0x0a,0x40,0x6e,0x61,0x6d,0x65,0x49,0x22,0x0a,0x49,0x74,0x65,0x6d,0x31,0x06,0x3a,0x06,0x45,0x54,0x3a,0x0b,0x40,0x70,0x69,0x74,0x63,0x68,0x69,0x69,0x3a,0x0c,0x40,0x76,0x6f,0x6c,0x75,0x6d,0x65,0x69,0x55))
    ChangeInventoryArmor(1145,0,0,1,false)
    0()
   EndIf()
   0()
  EndIf()
  If(1,3113,0,500,1)
   If(1,4113,0,2,0)
    ChangeVariable(4113,4113,0,0,3)
    ShowMessageFace("lamia_fc1",0,0,2,3)
    ShowMessage("\\n<Anastasia (Affection:\\V[3113])>あなた、なかなか素敵ね。 ほら、これを受け取りなさい……")
    250(bytes(0x04,0x08,0x6f,0x3a,0x0c,0x52,0x50,0x47,0x3a,0x3a,0x53,0x45,0x08,0x3a,0x0a,0x40,0x6e,0x61,0x6d,0x65,0x49,0x22,0x0a,0x49,0x74,0x65,0x6d,0x31,0x06,0x3a,0x06,0x45,0x54,0x3a,0x0b,0x40,0x70,0x69,0x74,0x63,0x68,0x69,0x69,0x3a,0x0c,0x40,0x76,0x6f,0x6c,0x75,0x6d,0x65,0x69,0x55))
    ChangeInventoryArmor(1333,0,0,1,false)
    0()
   EndIf()
   0()
  EndIf()
  If(1,3113,0,2000,1)
   If(1,4113,0,3,0)
    ChangeVariable(4113,4113,0,0,4)
    ShowMessageFace("lamia_fc1",0,0,2,4)
    ShowMessage("\\n<Anastasia (Affection:\\V[3113])>あなた、なかなか素敵ね。 ほら、これを受け取りなさい……")
    250(bytes(0x04,0x08,0x6f,0x3a,0x0c,0x52,0x50,0x47,0x3a,0x3a,0x53,0x45,0x08,0x3a,0x0a,0x40,0x6e,0x61,0x6d,0x65,0x49,0x22,0x0a,0x49,0x74,0x65,0x6d,0x31,0x06,0x3a,0x06,0x45,0x54,0x3a,0x0b,0x40,0x70,0x69,0x74,0x63,0x68,0x69,0x69,0x3a,0x0c,0x40,0x76,0x6f,0x6c,0x75,0x6d,0x65,0x69,0x55))
    ChangeInventoryArmor(1467,0,0,1,false)
    0()
   EndIf()
   0()
  EndIf()
  355("actor_label_jump")
  ShowMessageFace("lamia_fc1",0,0,2,5)
  ShowMessage("\\n<Anastasia (Affection:\\V[3113])>冬眠に備えて、食い溜めしておかないと。 あなたも食べていい？　ダメよね……")
  JumpToLabel("メニュー")
  DefineLabel("55")
  ShowMessageFace("lamia_fc1",2,0,2,6)
  ShowMessage("\\n<Anastasia (Affection:\\V[3113])>ナメクジ…… 私、ナメクジ苦手なのよ……")
  ShowMessageFace("name_fc1",3,0,2,7)
  ShowMessage("\\n<Melk (Affection:\\V[3055])>むふふ……")
  ShowMessageFace("lamia_fc1",2,0,2,8)
  ShowMessage("\\n<Anastasia (Affection:\\V[3113])>ひゃっ、来ないで……")
  ShowMessageFace("name_fc1",3,0,2,9)
  ShowMessage("\\n<Melk (Affection:\\V[3055])>ヌルヌル……")
  ShowMessageFace("lamia_fc1",2,0,2,10)
  ShowMessage("\\n<Anastasia (Affection:\\V[3113])>来ないでよ、ひゃぁぁっ！")
  ShowMessageFace("sonia_fc2",5,0,2,11)
  ShowMessage("\\n<Sonya>こら、いじめちゃダメでしょ！")
  JumpToLabel("メニュー")
  DefineLabel("64")
  ShowMessageFace("pramia_fc1",0,0,2,12)
  ShowMessage("\\n<Teeny (Affection:\\V[3064])>わぁ、ラミアのお姉さんだ！ あたしも、立派なラミアになれるかなぁ？")
  ShowMessageFace("lamia_fc1",0,0,2,13)
  ShowMessage("\\n<Anastasia (Affection:\\V[3113])>もちろん、なれるわ。 しっかり冬眠すれば、ちゃんと胸も育つわよ。")
  ShowMessageFace("pramia_fc1",1,0,2,14)
  ShowMessage("\\n<Teeny (Affection:\\V[3064])>あたし、今すぐ冬眠する！ むしろ数年くらい土に埋まってる！")
  ShowMessageFace("lamia_fc1",2,0,2,15)
  ShowMessage("\\n<Anastasia (Affection:\\V[3113])>セミじゃないんだから……")
  JumpToLabel("メニュー")
  DefineLabel("175")
  ShowMessageFace("lamia_fc1",2,0,2,16)
  ShowMessage("\\n<Anastasia (Affection:\\V[3113])>スキュラね…… 足がニョロニョロしてて、気持ち悪いわ……")
  ShowMessageFace("d_scylla_fc1",2,0,2,17)
  ShowMessage("\\n<Deiji (Affection:\\V[3175])>ラミアだって、気持ち悪いわよ。 尻尾がニョロニョロしててさ……")
  JumpToLabel("メニュー")
  DefineLabel("540")
  ShowMessageFace("amira_fc1",0,0,2,18)
  ShowMessage("\\n<Amira (Affection:\\V[3540])>さあ、逆さまになりなさい……")
  ShowMessageFace("lamia_fc1",2,0,2,19)
  ShowMessage("\\n<Anastasia (Affection:\\V[3113])>イヤよ……")
  JumpToLabel("メニュー")
  DefineLabel("メニュー")
  StartLoop()
   355("unlimited_choices(11, [\"Give presents\",")
   655("\"Add to party\",")
   655("\"View present list\",\"Request\",")
   655("\"Never mind\"])")
   If(1,11,0,0,0)
    355("present_start(113)")
    0()
   EndIf()
   If(1,11,0,1,0)
    PictureClear(5)
    355("move_actor_ex(113)")
    EndEventProcessing()
    0()
   EndIf()
   If(1,11,0,2,0)
    ShowMessageFace("",0,0,2,20)
    ShowMessage("Affection   10:\\iw[149]")
    ShowMessage("Affection  100:\\ia[1145]")
    ShowMessage("Affection  500:\\ia[1333]")
    ShowMessage("Affection 2000:\\ia[1467]")
    0()
   EndIf()
   If(1,11,0,3,0)
    PictureClear(5)
    ShowMessageFace("",0,0,2,21)
    ShowMessage("Ask her for what? (Affection:\\V[3113])")
    ShowChoices(strings("Swallow Whole(Affection:10)","Coiled Blowjob(Affection:50)","Lamia Vagina(Affection:100)","Never mind"),4)
    IfPlayerPicksChoice(0,null)
     If(1,3113,0,10,1)
      355("call_novel_scene(4356)")
      EndEventProcessing()
      0()
     Else()
      ShowMessageFace("lamia_fc1",2,0,2,22)
      ShowMessage("\\n<Anastasia (Affection:\\V[3113])>冬眠の準備で忙しいから、また今度ね。")
      0()
     EndIf()
     0()
    IfPlayerPicksChoice(1,null)
     If(1,3113,0,50,1)
      355("call_novel_scene(4357)")
      EndEventProcessing()
      0()
     Else()
      ShowMessageFace("lamia_fc1",2,0,2,23)
      ShowMessage("\\n<Anastasia (Affection:\\V[3113])>冬眠の準備で忙しいから、また今度ね。")
      0()
     EndIf()
     0()
    IfPlayerPicksChoice(2,null)
     If(1,3113,0,100,1)
      355("call_novel_scene(4358)")
      EndEventProcessing()
      0()
     Else()
      ShowMessageFace("lamia_fc1",2,0,2,24)
      ShowMessage("\\n<Anastasia (Affection:\\V[3113])>冬眠の準備で忙しいから、また今度ね。")
      0()
     EndIf()
     0()
    IfPlayerPicksChoice(3,null)
     0()
    404()
    0()
   EndIf()
   If(1,11,0,4,1)
    PictureClear(5)
    EndEventProcessing()
    0()
   EndIf()
   0()
  EndLoop()
  0()
 PAGE   2
  // condition: party contains actor #113
  0()



EVENT   37
 PAGE   1
  // condition: switch 1161 is ON
  PictureDisplay(5,"80_ustrel_st01",0,0,0,0,100,100,0,0)
  PictureMove(5,null,0,0,0,0,100,100,255,0,30,true)
  If(1,3161,0,10,1)
   If(1,4161,0,0,0)
    ChangeVariable(4161,4161,0,0,1)
    ShowMessageFace("ustrel_fc1",0,0,2,1)
    ShowMessage("\\n<Lemon (Affection:\\V[3161])>どうぞ、プレゼントです…… これからも、仲良くして下さいね。")
    250(bytes(0x04,0x08,0x6f,0x3a,0x0c,0x52,0x50,0x47,0x3a,0x3a,0x53,0x45,0x08,0x3a,0x0a,0x40,0x6e,0x61,0x6d,0x65,0x49,0x22,0x0a,0x49,0x74,0x65,0x6d,0x31,0x06,0x3a,0x06,0x45,0x54,0x3a,0x0b,0x40,0x70,0x69,0x74,0x63,0x68,0x69,0x69,0x3a,0x0c,0x40,0x76,0x6f,0x6c,0x75,0x6d,0x65,0x69,0x55))
    ChangeInventory_Item(2,0,0,1)
    0()
   EndIf()
   0()
  EndIf()
  If(1,3161,0,100,1)
   If(1,4161,0,1,0)
    ChangeVariable(4161,4161,0,0,2)
    ShowMessageFace("ustrel_fc1",0,0,2,2)
    ShowMessage("\\n<Lemon (Affection:\\V[3161])>どうぞ、プレゼントです…… これからも、仲良くして下さいね。")
    250(bytes(0x04,0x08,0x6f,0x3a,0x0c,0x52,0x50,0x47,0x3a,0x3a,0x53,0x45,0x08,0x3a,0x0a,0x40,0x6e,0x61,0x6d,0x65,0x49,0x22,0x0a,0x49,0x74,0x65,0x6d,0x31,0x06,0x3a,0x06,0x45,0x54,0x3a,0x0b,0x40,0x70,0x69,0x74,0x63,0x68,0x69,0x69,0x3a,0x0c,0x40,0x76,0x6f,0x6c,0x75,0x6d,0x65,0x69,0x55))
    ChangeInventoryArmor(1081,0,0,1,false)
    0()
   EndIf()
   0()
  EndIf()
  If(1,3161,0,500,1)
   If(1,4161,0,2,0)
    ChangeVariable(4161,4161,0,0,3)
    ShowMessageFace("ustrel_fc1",0,0,2,3)
    ShowMessage("\\n<Lemon (Affection:\\V[3161])>どうぞ、プレゼントです…… これからも、仲良くして下さいね。")
    250(bytes(0x04,0x08,0x6f,0x3a,0x0c,0x52,0x50,0x47,0x3a,0x3a,0x53,0x45,0x08,0x3a,0x0a,0x40,0x6e,0x61,0x6d,0x65,0x49,0x22,0x0a,0x49,0x74,0x65,0x6d,0x31,0x06,0x3a,0x06,0x45,0x54,0x3a,0x0b,0x40,0x70,0x69,0x74,0x63,0x68,0x69,0x69,0x3a,0x0c,0x40,0x76,0x6f,0x6c,0x75,0x6d,0x65,0x69,0x55))
    ChangeInventoryArmor(1046,0,0,1,false)
    0()
   EndIf()
   0()
  EndIf()
  If(1,3161,0,2000,1)
   If(1,4161,0,3,0)
    ChangeVariable(4161,4161,0,0,4)
    ShowMessageFace("ustrel_fc1",0,0,2,4)
    ShowMessage("\\n<Lemon (Affection:\\V[3161])>どうぞ、プレゼントです…… これからも、仲良くして下さいね。")
    250(bytes(0x04,0x08,0x6f,0x3a,0x0c,0x52,0x50,0x47,0x3a,0x3a,0x53,0x45,0x08,0x3a,0x0a,0x40,0x6e,0x61,0x6d,0x65,0x49,0x22,0x0a,0x49,0x74,0x65,0x6d,0x31,0x06,0x3a,0x06,0x45,0x54,0x3a,0x0b,0x40,0x70,0x69,0x74,0x63,0x68,0x69,0x69,0x3a,0x0c,0x40,0x76,0x6f,0x6c,0x75,0x6d,0x65,0x69,0x55))
    ChangeInventoryArmor(1467,0,0,1,false)
    0()
   EndIf()
   0()
  EndIf()
  355("actor_label_jump")
  ShowMessageFace("ustrel_fc1",0,0,2,5)
  ShowMessage("\\n<Lemon (Affection:\\V[3161])>腕によりをかけて、お料理しますよ♪ ……でも、手伝ってくれる方が少ないです。")
  JumpToLabel("メニュー")
  DefineLabel("5")
  ShowMessageFace("alice_fc5",1,0,2,6)
  ShowMessage("\\n<Alice (Affection:\\V[3005])>貴様、料理が上手という噂を聞く。 特別に、魔王に料理を捧げるチャンスをやろう。")
  ShowMessageFace("ustrel_fc1",0,0,2,7)
  ShowMessage("\\n<Lemon (Affection:\\V[3161])>それでは、パエリアなど……")
  ShowMessageFace("alice_fc5",1,0,2,8)
  ShowMessage("\\n<Alice (Affection:\\V[3005])>おお、うまい！ どこの食材を使っているのだ？")
  ShowMessageFace("ustrel_fc1",0,0,2,9)
  ShowMessage("\\n<Lemon (Affection:\\V[3161])>それは、その……")
  ShowMessageFace("alice_fc5",5,0,2,10)
  ShowMessage("\\n<Alice (Affection:\\V[3005])>今、チラッと自分の下半身を見なかったか……？")
  JumpToLabel("メニュー")
  DefineLabel("64")
  ShowMessageFace("pramia_fc1",0,0,2,11)
  ShowMessage("\\n<Teeny (Affection:\\V[3064])>あたしも、お料理手伝うよ！")
  ShowMessageFace("ustrel_fc1",0,0,2,12)
  ShowMessage("\\n<Lemon (Affection:\\V[3161])>あら、ありがとうございます。 お手伝いなんて、偉いのですね。")
  ShowMessageFace("pramia_fc1",0,0,2,13)
  ShowMessage("\\n<Teeny (Affection:\\V[3064])>あたし、立派なおかみ兼メイドになるの。 だから、いっぱい修行を積まないとね♪")
  JumpToLabel("メニュー")
  DefineLabel("144")
  ShowMessageFace("saboresu_fc1",0,0,2,14)
  ShowMessage("\\n<Sunny (Affection:\\V[3144])>あんたも、スキュラの亜種？")
  ShowMessageFace("ustrel_fc1",0,0,2,15)
  ShowMessage("\\n<Lemon (Affection:\\V[3161])>ええ、いちおう私もスキュラです。 下半身の子は、純粋な触手ではないですが……")
  ShowMessageFace("saboresu_fc1",0,0,2,16)
  ShowMessage("\\n<Sunny (Affection:\\V[3144])>お互い苦労するよね。 下半身の子が、勝手に暴れ出したり……")
  ShowMessageFace("ustrel_fc1",0,0,2,17)
  ShowMessage("\\n<Lemon (Affection:\\V[3161])>ひどい時には、食べられかけたりしますよね。 本当に大変です……")
  JumpToLabel("メニュー")
  DefineLabel("154")
  ShowMessageFace("wani_fc1",0,0,2,18)
  ShowMessage("\\n<Gaa (Affection:\\V[3154])>がぁ……")
  ShowMessageFace("ustrel_fc1",0,0,2,19)
  ShowMessage("\\n<Lemon (Affection:\\V[3161])>あら、あなたも下半身にお口が……")
  ShowMessageFace("",0,0,2,20)
  ShowMessage("ワニ娘とウーストレルの下の口が、互いに荒ぶり始めた！")
  ShowMessageFace("wani_fc1",2,0,2,21)
  ShowMessage("\\n<Gaa (Affection:\\V[3154])>あっ、下のお口が……暴れちゃだめ……")
  ShowMessageFace("ustrel_fc1",2,0,2,22)
  ShowMessage("\\n<Lemon (Affection:\\V[3161])>こら、大人しくしなさい……！ ああもう、ごめんなさいね……")
  ShowMessageFace("",0,0,2,23)
  ShowMessage("下の口同士がケンカしている……")
  JumpToLabel("メニュー")
  DefineLabel("175")
  ShowMessageFace("d_scylla_fc1",0,0,2,24)
  ShowMessage("\\n<Deiji (Affection:\\V[3175])>なんだか、変わったスキュラよね。 まあ、私も他人のこと言えないけどさぁ……")
  ShowMessageFace("ustrel_fc1",0,0,2,25)
  ShowMessage("\\n<Lemon (Affection:\\V[3161])>あなたは、砂漠適応型ですね。 私は魔導の力で体を変化させたのですよ。")
  ShowMessageFace("d_scylla_fc1",0,0,2,26)
  ShowMessage("\\n<Deiji (Affection:\\V[3175])>メジャーなのはタコ型だけど、原種は狼型だっけ。 あたし達も、ずいぶん多彩になったものよね……")
  JumpToLabel("メニュー")
  DefineLabel("メニュー")
  StartLoop()
   355("unlimited_choices(11, [\"Give presents\",")
   655("\"Add to party\",")
   655("\"View present list\",\"Request\",")
   655("\"Never mind\"])")
   If(1,11,0,0,0)
    355("present_start(161)")
    0()
   EndIf()
   If(1,11,0,1,0)
    PictureClear(5)
    355("move_actor_ex(161)")
    EndEventProcessing()
    0()
   EndIf()
   If(1,11,0,2,0)
    ShowMessageFace("",0,0,2,27)
    ShowMessage("Affection   10:\\iw[2]")
    ShowMessage("Affection  100:\\ia[1081]")
    ShowMessage("Affection  500:\\ia[1046]")
    ShowMessage("Affection 2000:\\ia[1467]")
    0()
   EndIf()
   If(1,11,0,3,0)
    PictureClear(5)
    ShowMessageFace("",0,0,2,28)
    ShowMessage("Ask her for what? (Affection:\\V[3161])")
    ShowChoices(strings("Semen Squeezing Hole(Affection:10)","Semen Squeezing Hole(Affection:100)","Never mind"),3)
    IfPlayerPicksChoice(0,null)
     If(1,3161,0,10,1)
      355("call_novel_scene(4606)")
      EndEventProcessing()
      0()
     Else()
      ShowMessageFace("ustrel_fc1",0,0,2,29)
      ShowMessage("\\n<Lemon (Affection:\\V[3161])>あなたとは、まだ深い関係ではありませんから……")
      0()
     EndIf()
     0()
    IfPlayerPicksChoice(1,null)
     If(1,3161,0,100,1)
      355("call_novel_scene(4607)")
      EndEventProcessing()
      0()
     Else()
      ShowMessageFace("ustrel_fc1",0,0,2,30)
      ShowMessage("\\n<Lemon (Affection:\\V[3161])>あなたとは、まだ深い関係ではありませんから……")
      0()
     EndIf()
     0()
    IfPlayerPicksChoice(2,null)
     0()
    404()
    0()
   EndIf()
   If(1,11,0,4,1)
    PictureClear(5)
    EndEventProcessing()
    0()
   EndIf()
   0()
  EndLoop()
  0()
 PAGE   2
  // condition: party contains actor #161
  0()



EVENT   38
 PAGE   1
  // condition: switch 1143 is ON
  PictureDisplay(5,"80_eva_st01",0,0,0,0,100,100,0,0)
  PictureMove(5,null,0,0,0,0,100,100,255,0,30,true)
  If(1,3143,0,10,1)
   If(1,4143,0,0,0)
    ChangeVariable(4143,4143,0,0,1)
    ShowMessageFace("eva_fc1",2,0,2,1)
    ShowMessage("\\n<Eva (Affection:\\V[3143])>ふん、これを受け取りなさいよ…… 別に気にする必要はないわ、たまたま畑に埋まってたのよ。")
    250(bytes(0x04,0x08,0x6f,0x3a,0x0c,0x52,0x50,0x47,0x3a,0x3a,0x53,0x45,0x08,0x3a,0x0a,0x40,0x6e,0x61,0x6d,0x65,0x49,0x22,0x0a,0x49,0x74,0x65,0x6d,0x31,0x06,0x3a,0x06,0x45,0x54,0x3a,0x0b,0x40,0x70,0x69,0x74,0x63,0x68,0x69,0x69,0x3a,0x0c,0x40,0x76,0x6f,0x6c,0x75,0x6d,0x65,0x69,0x55))
    ChangeInventoryWeapon(520,0,0,1,false)
    0()
   EndIf()
   0()
  EndIf()
  If(1,3143,0,100,1)
   If(1,4143,0,1,0)
    ChangeVariable(4143,4143,0,0,2)
    ShowMessageFace("eva_fc1",2,0,2,2)
    ShowMessage("\\n<Eva (Affection:\\V[3143])>ふん、これを受け取りなさいよ…… 別に気にする必要はないわ、たまたま畑に埋まってたのよ。")
    250(bytes(0x04,0x08,0x6f,0x3a,0x0c,0x52,0x50,0x47,0x3a,0x3a,0x53,0x45,0x08,0x3a,0x0a,0x40,0x6e,0x61,0x6d,0x65,0x49,0x22,0x0a,0x49,0x74,0x65,0x6d,0x31,0x06,0x3a,0x06,0x45,0x54,0x3a,0x0b,0x40,0x70,0x69,0x74,0x63,0x68,0x69,0x69,0x3a,0x0c,0x40,0x76,0x6f,0x6c,0x75,0x6d,0x65,0x69,0x55))
    ChangeInventoryArmor(1061,0,0,1,false)
    0()
   EndIf()
   0()
  EndIf()
  If(1,3143,0,500,1)
   If(1,4143,0,2,0)
    ChangeVariable(4143,4143,0,0,3)
    ShowMessageFace("eva_fc1",2,0,2,3)
    ShowMessage("\\n<Eva (Affection:\\V[3143])>ふん、これを受け取りなさいよ…… 別に気にする必要はないわ、たまたま畑に埋まってたのよ。")
    250(bytes(0x04,0x08,0x6f,0x3a,0x0c,0x52,0x50,0x47,0x3a,0x3a,0x53,0x45,0x08,0x3a,0x0a,0x40,0x6e,0x61,0x6d,0x65,0x49,0x22,0x0a,0x49,0x74,0x65,0x6d,0x31,0x06,0x3a,0x06,0x45,0x54,0x3a,0x0b,0x40,0x70,0x69,0x74,0x63,0x68,0x69,0x69,0x3a,0x0c,0x40,0x76,0x6f,0x6c,0x75,0x6d,0x65,0x69,0x55))
    ChangeInventoryArmor(1252,0,0,1,false)
    0()
   EndIf()
   0()
  EndIf()
  If(1,3143,0,2000,1)
   If(1,4143,0,3,0)
    ChangeVariable(4143,4143,0,0,4)
    ShowMessageFace("eva_fc1",2,0,2,4)
    ShowMessage("\\n<Eva (Affection:\\V[3143])>ふん、これを受け取りなさいよ…… 別に気にする必要はないわ、たまたま畑に埋まってたのよ。")
    250(bytes(0x04,0x08,0x6f,0x3a,0x0c,0x52,0x50,0x47,0x3a,0x3a,0x53,0x45,0x08,0x3a,0x0a,0x40,0x6e,0x61,0x6d,0x65,0x49,0x22,0x0a,0x49,0x74,0x65,0x6d,0x31,0x06,0x3a,0x06,0x45,0x54,0x3a,0x0b,0x40,0x70,0x69,0x74,0x63,0x68,0x69,0x69,0x3a,0x0c,0x40,0x76,0x6f,0x6c,0x75,0x6d,0x65,0x69,0x55))
    ChangeInventoryArmor(1146,0,0,1,false)
    0()
   EndIf()
   0()
  EndIf()
  355("actor_label_jump")
  ShowMessageFace("eva_fc1",0,0,2,5)
  ShowMessage("\\n<Eva (Affection:\\V[3143])>私の職業遍歴、なかなかにすごいでしょう。 流浪の時代が長かったから、色々と手を付けたのよ……")
  ShowMessageFace("eva_fc1",2,0,2,6)
  ShowMessage("\\n<Eva (Affection:\\V[3143])>……どれも中途半端なんて言わないでよね！")
  JumpToLabel("メニュー")
  DefineLabel("61")
  ShowMessageFace("mimizu_fc1",1,0,2,7)
  ShowMessage("\\n<Mimi (Affection:\\V[3061])>畑荒らしに行くわよ、エヴァ！")
  ShowMessageFace("eva_fc1",0,0,2,8)
  ShowMessage("\\n<Eva (Affection:\\V[3143])>ええ、行きましょう！　ミミー！")
  ShowMessageFace("sonia_fc3",2,0,2,9)
  ShowMessage("\\n<Sonya>なんで意気投合してんの！？")
  JumpToLabel("メニュー")
  DefineLabel("88")
  ShowMessageFace("eva_fc1",0,0,2,10)
  ShowMessage("\\n<Eva (Affection:\\V[3143])>あっ、おいしそうなかぼちゃ……")
  ShowMessageFace("jack_fc1",0,0,2,11)
  ShowMessage("\\n<Pumpkin (Affection:\\V[3088])>食べちゃダメ……")
  ShowMessageFace("eva_fc1",0,0,2,12)
  ShowMessage("\\n<Eva (Affection:\\V[3143])>ちょっとだけでいいから…… ひとかじりだけ……")
  ShowMessageFace("jack_fc1",0,0,2,13)
  ShowMessage("\\n<Pumpkin (Affection:\\V[3088])>ダメ……")
  JumpToLabel("メニュー")
  DefineLabel("108")
  ShowMessageFace("eva_fc1",2,0,2,14)
  ShowMessage("\\n<Eva (Affection:\\V[3143])>ねえ、殻の中に真珠を隠してない……？")
  ShowMessageFace("kai_fc1",0,0,2,15)
  ShowMessage("\\n<Shelly (Affection:\\V[3108])>いえ、私はアコヤ貝ではないので……")
  ShowMessageFace("eva_fc1",2,0,2,16)
  ShowMessage("\\n<Eva (Affection:\\V[3143])>残念…… じゃあ百歩譲って、お味噌汁の具にならない？")
  ShowMessageFace("kai_fc1",2,0,2,17)
  ShowMessage("\\n<Shelly (Affection:\\V[3108])>それ、本当に百歩も譲ったんですか……？")
  JumpToLabel("メニュー")
  DefineLabel("123")
  ShowMessageFace("eva_fc1",2,0,2,18)
  ShowMessage("\\n<Eva (Affection:\\V[3143])>あんた、サキュバスのくせになんでシスターなの？ それって、もうかるの？")
  ShowMessageFace("sisccubus_fc1",0,0,2,19)
  ShowMessage("\\n<Christie (Affection:\\V[3123])>もちろん、儲かりますよ。 お布施だけでも、三食昼寝は楽勝です。")
  ShowMessageFace("eva_fc1",0,0,2,20)
  ShowMessage("\\n<Eva (Affection:\\V[3143])>オーケー、私も今日からシスターになるわ！ 神よ、日常の糧を与えたまえ……")
  ShowMessageFace("sisccubus_fc1",0,0,2,21)
  ShowMessage("\\n<Christie (Affection:\\V[3123])>(これで信者一人ゲット……)")
  JumpToLabel("メニュー")
  DefineLabel("134")
  ShowMessageFace("eva_fc1",2,0,2,22)
  ShowMessage("\\n<Eva (Affection:\\V[3143])>ねぇ、墓荒しってもうかるの？")
  ShowMessageFace("chrom_fc2",0,0,2,23)
  ShowMessage("\\n<Chrome (Affection:\\V[3134])>少し前なら金も出したが…… 今は、ゾンビ製作を禁止されている身なのじゃ。")
  ShowMessageFace("eva_fc1",2,0,2,24)
  ShowMessage("\\n<Eva (Affection:\\V[3143])>やっぱり、楽してお金は稼げないか……")
  ShowMessageFace("chrom_fc2",5,0,2,25)
  ShowMessage("\\n<Chrome (Affection:\\V[3134])>墓荒しって、すさまじく力仕事じゃぞ……")
  JumpToLabel("メニュー")
  DefineLabel("147")
  ShowMessageFace("eva_fc1",0,0,2,26)
  ShowMessage("\\n<Eva (Affection:\\V[3143])>サボテンのトゲって、売れるのよね……♪")
  ShowMessageFace("saboten_fc1",2,0,2,27)
  ShowMessage("\\n<Casta (Affection:\\V[3147])>あっ、ちょっと…… トゲを抜かないでもらえます……？")
  ShowMessageFace("eva_fc1",2,0,2,28)
  ShowMessage("\\n<Eva (Affection:\\V[3143])>……あいたっ！ 動くから、刺さっちゃった……")
  ShowMessageFace("saboten_fc1",2,0,2,29)
  ShowMessage("\\n<Casta (Affection:\\V[3147])>申し訳ありません…… ……って、私が悪いのでしょうか？")
  JumpToLabel("メニュー")
  DefineLabel("149")
  ShowMessageFace("lamp_fc1",0,0,2,30)
  ShowMessage("\\n<Jeannie (Affection:\\V[3149])>あなたの願いはなんですか……？")
  ShowMessageFace("eva_fc1",1,0,2,31)
  ShowMessage("\\n<Eva (Affection:\\V[3143])>お金！　三食昼寝付きの生活！　あと、おやつ！")
  ShowMessageFace("lamp_fc1",1,0,2,32)
  ShowMessage("\\n<Jeannie (Affection:\\V[3149])>では、叶えましょう……")
  ShowMessageFace("eva_fc1",1,0,2,33)
  ShowMessage("\\n<Eva (Affection:\\V[3143])>ああ、素敵……おやつ……お金……")
  ShowMessageFace("",0,0,2,34)
  ShowMessage("エヴァは幻覚を見ている……")
  ShowMessageFace("lamp_fc1",0,0,2,35)
  ShowMessage("\\n<Jeannie (Affection:\\V[3149])>こうまで欲望に忠実だと、いっそ清々しいですね……")
  JumpToLabel("メニュー")
  DefineLabel("155")
  ShowMessageFace("eva_fc1",2,0,2,36)
  ShowMessage("\\n<Eva (Affection:\\V[3143])>歌って踊って、そんなので儲かるの……？")
  ShowMessageFace("saki_fc1",0,0,2,37)
  ShowMessage("\\n<Saki (Affection:\\V[3155])>サキは、あんまりお金の事考えてないけど…… ファンからプレゼントもあるし、生活には困らないよ。")
  ShowMessageFace("eva_fc1",0,0,2,38)
  ShowMessage("\\n<Eva (Affection:\\V[3143])>あたし、アイドルになる！ ねぇ、どういうアイドルで売れると思う？")
  ShowMessageFace("saki_fc1",2,0,2,39)
  ShowMessage("\\n<Saki (Affection:\\V[3155])>薄幸系とか、貧乏系とか……")
  ShowMessageFace("eva_fc1",2,0,2,40)
  ShowMessage("\\n<Eva (Affection:\\V[3143])>ろくなもんじゃない……")
  JumpToLabel("メニュー")
  DefineLabel("156")
  ShowMessageFace("eva_fc1",2,0,2,41)
  ShowMessage("\\n<Eva (Affection:\\V[3143])>うわっ、何その変態っぽい格好……")
  ShowMessageFace("d_fighter_fc1",3,0,2,42)
  ShowMessage("\\n<Regina (Affection:\\V[3156])>あ、あんたの方が露出度高いじゃない！")
  ShowMessageFace("eva_fc1",2,0,2,43)
  ShowMessage("\\n<Eva (Affection:\\V[3143])>ひょっとして、お金ないの……？")
  ShowMessageFace("d_fighter_fc1",3,0,2,44)
  ShowMessage("\\n<Regina (Affection:\\V[3156])>お金の問題じゃないわよ！ これは、先祖代々伝えられた戦闘装束なの！")
  ShowMessageFace("eva_fc1",0,0,2,45)
  ShowMessage("\\n<Eva (Affection:\\V[3143])>先祖代々って……それ、高く売れない？")
  ShowMessageFace("d_fighter_fc1",0,0,2,46)
  ShowMessage("\\n<Regina (Affection:\\V[3156])>(マイペースな淫魔よね……)")
  JumpToLabel("メニュー")
  DefineLabel("166")
  ShowMessageFace("narcubus_fc1",0,0,2,47)
  ShowMessage("\\n<Manako (Affection:\\V[3166])>エヴァちゃん、元気だった？ お腹空かせてなかった……？")
  ShowMessageFace("eva_fc1",2,0,2,48)
  ShowMessage("\\n<Eva (Affection:\\V[3143])>もちろん元気よ！ おなかは空かせてたけど……")
  ShowMessageFace("narcubus_fc1",0,0,2,49)
  ShowMessage("\\n<Manako (Affection:\\V[3166])>エヴァちゃん、ちゃんと働いてた？")
  ShowMessageFace("eva_fc1",2,0,2,50)
  ShowMessage("\\n<Eva (Affection:\\V[3143])>働いてないけど……")
  ShowMessageFace("narcubus_fc1",3,0,2,51)
  ShowMessage("\\n<Manako (Affection:\\V[3166])>やっぱり、そうだと思った…… ちゃんと食べて、働かないとダメだよ。")
  JumpToLabel("メニュー")
  DefineLabel("181")
  ShowMessageFace("eva_fc1",0,0,2,52)
  ShowMessage("\\n<Eva (Affection:\\V[3143])>突然だけど、あなたはいくらで売れるの？")
  ShowMessageFace("gaistvine_fc1",0,0,2,53)
  ShowMessage("\\n<Lisa (Affection:\\V[3181])>売らないで。")
  ShowMessageFace("eva_fc1",0,0,2,54)
  ShowMessage("\\n<Eva (Affection:\\V[3143])>ハクつけるために、包装紙とかいいの用意しないとね。")
  ShowMessageFace("gaistvine_fc1",0,0,2,55)
  ShowMessage("\\n<Lisa (Affection:\\V[3181])>だから、売らないで。")
  JumpToLabel("メニュー")
  DefineLabel("557")
  ShowMessageFace("justice_fc1",0,0,2,56)
  ShowMessage("\\n<Jessica>(Affection:\\V[1557]) 出たな、淫魔(サキュバス)！")
  ShowMessageFace("eva_fc1",2,0,2,57)
  ShowMessage("\\n<Eva (Affection:\\V[3143])>面倒くさいコスプレ女、こんなところにまで！ いい年してそんな事やってて、恥ずかしくないの？")
  ShowMessageFace("justice_fc1",0,0,2,58)
  ShowMessage("\\n<Jessica>(Affection:\\V[1557]) お前こそ、世のため人のためにちゃんと働け！")
  ShowMessageFace("eva_fc1",2,0,2,59)
  ShowMessage("\\n<Eva (Affection:\\V[3143])>あんたに言われたくないわよ！")
  JumpToLabel("メニュー")
  DefineLabel("メニュー")
  StartLoop()
   355("unlimited_choices(11, [\"Give presents\",")
   655("\"Add to party\",")
   655("\"View present list\",\"Request\",")
   655("\"Never mind\"])")
   If(1,11,0,0,0)
    355("present_start(143)")
    0()
   EndIf()
   If(1,11,0,1,0)
    PictureClear(5)
    355("move_actor_ex(143)")
    EndEventProcessing()
    0()
   EndIf()
   If(1,11,0,2,0)
    ShowMessageFace("",0,0,2,60)
    ShowMessage("Affection   10:\\iw[520]")
    ShowMessage("Affection  100:\\ia[1061]")
    ShowMessage("Affection  500:\\ia[1146]")
    ShowMessage("Affection 2000:\\ia[1252]")
    0()
   EndIf()
   If(1,11,0,3,0)
    PictureClear(5)
    ShowMessageFace("",0,0,2,61)
    ShowMessage("Ask her for what? (Affection:\\V[3143])")
    355("unlimited_choices(12,")
    655(" [\"Energy Drain(Affection:10)\",")
    655("\"Succubus Paizuri(Affection:20)\",")
    655("\"Succubus Blowjob(Affection:30)\",")
    655("\"Succubus Armpit(Affection:40)\",")
    655("\"Succubus Footjob(Affection:50)\",")
    655("\"Succubus Facesitting Milking(Affection:70)\",")
    655("\"Succubus Facesitting Tail Sucking(Affection:80)\",")
    655("\"Succubus Vagina(Affection:100)\",")
    655("\"Never mind\"])")
    If(1,12,0,0,0)
     If(1,3143,0,10,1)
      355("call_novel_scene(4511)")
      EndEventProcessing()
      0()
     Else()
      ShowMessageFace("eva_fc1",1,0,2,62)
      ShowMessage("\\n<Eva (Affection:\\V[3143])>それなら、もう少し貢ぎ物が欲しいところね……")
      0()
     EndIf()
     0()
    EndIf()
    If(1,12,0,1,0)
     If(1,3143,0,20,1)
      355("call_novel_scene(4512)")
      EndEventProcessing()
      0()
     Else()
      ShowMessageFace("eva_fc1",1,0,2,63)
      ShowMessage("\\n<Eva (Affection:\\V[3143])>それなら、もう少し貢ぎ物が欲しいところね……")
      0()
     EndIf()
     0()
    EndIf()
    If(1,12,0,2,0)
     If(1,3143,0,30,1)
      355("call_novel_scene(4513)")
      EndEventProcessing()
      0()
     Else()
      ShowMessageFace("eva_fc1",1,0,2,64)
      ShowMessage("\\n<Eva (Affection:\\V[3143])>それなら、もう少し貢ぎ物が欲しいところね……")
      0()
     EndIf()
     0()
    EndIf()
    If(1,12,0,3,0)
     If(1,3143,0,40,1)
      355("call_novel_scene(4514)")
      EndEventProcessing()
      0()
     Else()
      ShowMessageFace("eva_fc1",1,0,2,65)
      ShowMessage("\\n<Eva (Affection:\\V[3143])>それなら、もう少し貢ぎ物が欲しいところね……")
      0()
     EndIf()
     0()
    EndIf()
    If(1,12,0,4,0)
     If(1,3143,0,50,1)
      355("call_novel_scene(4515)")
      EndEventProcessing()
      0()
     Else()
      ShowMessageFace("eva_fc1",1,0,2,66)
      ShowMessage("\\n<Eva (Affection:\\V[3143])>それなら、もう少し貢ぎ物が欲しいところね……")
      0()
     EndIf()
     0()
    EndIf()
    If(1,12,0,5,0)
     If(1,3143,0,70,1)
      355("call_novel_scene(4516)")
      EndEventProcessing()
      0()
     Else()
      ShowMessageFace("eva_fc1",1,0,2,67)
      ShowMessage("\\n<Eva (Affection:\\V[3143])>それなら、もう少し貢ぎ物が欲しいところね……")
      0()
     EndIf()
     0()
    EndIf()
    If(1,12,0,6,0)
     If(1,3143,0,80,1)
      355("call_novel_scene(4517)")
      EndEventProcessing()
      0()
     Else()
      ShowMessageFace("eva_fc1",1,0,2,68)
      ShowMessage("\\n<Eva (Affection:\\V[3143])>それなら、もう少し貢ぎ物が欲しいところね……")
      0()
     EndIf()
     0()
    EndIf()
    If(1,12,0,7,0)
     If(1,3143,0,100,1)
      355("call_novel_scene(4518)")
      EndEventProcessing()
      0()
     Else()
      ShowMessageFace("eva_fc1",1,0,2,69)
      ShowMessage("\\n<Eva (Affection:\\V[3143])>それなら、もう少し貢ぎ物が欲しいところね……")
      0()
     EndIf()
     0()
    EndIf()
    If(1,12,0,8,0)
     0()
    EndIf()
    0()
   EndIf()
   If(1,11,0,4,1)
    PictureClear(5)
    EndEventProcessing()
    0()
   EndIf()
   0()
  EndLoop()
  0()
 PAGE   2
  // condition: party contains actor #143
  0()